[1,0]<stdout>:Epoch 1/200
[1,0]<stdout>:
[1,0]<stdout>:Epoch 00001: LearningRateScheduler setting learning rate to 0.2.
[1,1]<stdout>:
[1,1]<stdout>:Epoch 00001: LearningRateScheduler setting learning rate to 0.2.[1,1]<stdout>:
[1,0]<stdout>:195/195 [==============================] - 205s 1s/step - loss: 1.7577 - acc: 0.3796 - val_loss: 2.1479 - val_acc: 0.3111
[1,0]<stdout>:Epoch 2/200
[1,0]<stdout>:
[1,0]<stdout>:Epoch 00002: LearningRateScheduler setting learning rate to 0.2.
[1,1]<stdout>:
[1,1]<stdout>:Epoch 00002: LearningRateScheduler setting learning rate to 0.2.
[1,0]<stdout>:195/195 [==============================] - 205s 1s/step - loss: 1.3202 - acc: 0.5673 - val_loss: 2.6190 - val_acc: 0.3764
[1,0]<stdout>:Epoch 3/200
[1,0]<stdout>:
[1,0]<stdout>:Epoch 00003: LearningRateScheduler setting learning rate to 0.2.
[1,1]<stdout>:
[1,1]<stdout>:Epoch 00003: LearningRateScheduler setting learning rate to 0.2.
[1,0]<stdout>:195/195 [==============================] - 209s 1s/step - loss: 1.1152 - acc: 0.6394 - val_loss: 2.1888 - val_acc: 0.4498
[1,0]<stdout>:Epoch 4/200
[1,0]<stdout>:
[1,0]<stdout>:Epoch 00004: LearningRateScheduler setting learning rate to 0.2.
[1,1]<stdout>:
[1,1]<stdout>:Epoch 00004: LearningRateScheduler setting learning rate to 0.2.
[1,0]<stdout>:195/195 [==============================] - 210s 1s/step - loss: 1.0015 - acc: 0.6844 - val_loss: 2.9043 - val_acc: 0.4157
[1,0]<stdout>:Epoch 5/200
[1,1]<stdout>:
[1,1]<stdout>:Epoch 00005: LearningRateScheduler setting learning rate to 0.2.
[1,0]<stdout>:
[1,0]<stdout>:Epoch 00005: LearningRateScheduler setting learning rate to 0.2.
[1,0]<stdout>:195/195 [==============================] - 208s 1s/step - loss: 0.9152 - acc: 0.7167 - val_loss: 2.0228 - val_acc: 0.5252
[1,1]<stdout>:
[1,1]<stdout>:Epoch 5: finished gradual learning rate warmup to 0.2.
[1,0]<stdout>:
[1,0]<stdout>:Epoch 5: finished gradual learning rate warmup to 0.2.
[1,1]<stdout>:
[1,1]<stdout>:Epoch 00006: LearningRateScheduler setting learning rate to 0.2.
[1,0]<stdout>:Epoch 6/200
[1,0]<stdout>:
[1,0]<stdout>:Epoch 00006: LearningRateScheduler setting learning rate to 0.2.
[1,0]<stdout>:195/195 [==============================] - 209s 1s/step - loss: 0.8468 - acc: 0.7445 - val_loss: 1.0066 - val_acc: 0.6919
[1,1]<stdout>:
[1,1]<stdout>:Epoch 00007: LearningRateScheduler setting learning rate to 0.2.
[1,0]<stdout>:Epoch 7/200
[1,0]<stdout>:
[1,0]<stdout>:Epoch 00007: LearningRateScheduler setting learning rate to 0.2.
[1,0]<stdout>:195/195 [==============================] - 211s 1s/step - loss: 0.7970 - acc: 0.7633 - val_loss: 1.8194 - val_acc: 0.5530
[1,0]<stdout>:Epoch 8/200
[1,0]<stdout>:
[1,0]<stdout>:Epoch 00008: LearningRateScheduler setting learning rate to 0.2.
[1,1]<stdout>:
[1,1]<stdout>:Epoch 00008: LearningRateScheduler setting learning rate to 0.2.
[1,0]<stdout>:195/195 [==============================] - 210s 1s/step - loss: 0.7458 - acc: 0.7812 - val_loss: 1.4052 - val_acc: 0.6084
[1,0]<stdout>:Epoch 9/200
[1,0]<stdout>:
[1,0]<stdout>:Epoch 00009: LearningRateScheduler setting learning rate to 0.2.
[1,1]<stdout>:
[1,1]<stdout>:Epoch 00009: LearningRateScheduler setting learning rate to 0.2.
[1,0]<stdout>:195/195 [==============================] - 211s 1s/step - loss: 0.7113 - acc: 0.7963 - val_loss: 1.1843 - val_acc: 0.6878
[1,0]<stdout>:Epoch 10/200
[1,0]<stdout>:
[1,0]<stdout>:Epoch 00010: LearningRateScheduler setting learning rate to 0.2.
[1,1]<stdout>:
[1,1]<stdout>:Epoch 00010: LearningRateScheduler setting learning rate to 0.2.
[1,0]<stdout>:195/195 [==============================] - 211s 1s/step - loss: 0.6875 - acc: 0.8015 - val_loss: 1.4706 - val_acc: 0.6468
[1,0]<stdout>:Epoch 11/200
[1,0]<stdout>:
[1,0]<stdout>:Epoch 00011: LearningRateScheduler setting learning rate to 0.2.
[1,1]<stdout>:
[1,1]<stdout>:Epoch 00011: LearningRateScheduler setting learning rate to 0.2.
[1,0]<stdout>:195/195 [==============================] - 211s 1s/step - loss: 0.6638 - acc: 0.8152 - val_loss: 1.1197 - val_acc: 0.6610
[1,0]<stdout>:Epoch 12/200
[1,0]<stdout>:
[1,0]<stdout>:Epoch 00012: LearningRateScheduler setting learning rate to 0.2.
[1,1]<stdout>:
[1,1]<stdout>:Epoch 00012: LearningRateScheduler setting learning rate to 0.2.
[1,0]<stdout>:195/195 [==============================] - 211s 1s/step - loss: 0.6488 - acc: 0.8208 - val_loss: 0.8373 - val_acc: 0.7579
[1,0]<stdout>:Epoch 13/200
[1,0]<stdout>:
[1,0]<stdout>:Epoch 00013: LearningRateScheduler setting learning rate to 0.2.
[1,1]<stdout>:
[1,1]<stdout>:Epoch 00013: LearningRateScheduler setting learning rate to 0.2.
[1,0]<stdout>:195/195 [==============================] - 210s 1s/step - loss: 0.6197 - acc: 0.8298 - val_loss: 1.2036 - val_acc: 0.6729
[1,0]<stdout>:Epoch 14/200
[1,0]<stdout>:
[1,0]<stdout>:Epoch 00014: LearningRateScheduler setting learning rate to 0.2.
[1,1]<stdout>:
[1,1]<stdout>:Epoch 00014: LearningRateScheduler setting learning rate to 0.2.
[1,0]<stdout>:195/195 [==============================] - 211s 1s/step - loss: 0.6272 - acc: 0.8260 - val_loss: 1.1719 - val_acc: 0.7084
[1,0]<stdout>:Epoch 15/200
[1,0]<stdout>:
[1,0]<stdout>:Epoch 00015: LearningRateScheduler setting learning rate to 0.2.
[1,1]<stdout>:
[1,1]<stdout>:Epoch 00015: LearningRateScheduler setting learning rate to 0.2.
[1,0]<stdout>:195/195 [==============================] - 211s 1s/step - loss: 0.6069 - acc: 0.8333 - val_loss: 0.8799 - val_acc: 0.7494
[1,0]<stdout>:Epoch 16/200
[1,0]<stdout>:
[1,0]<stdout>:Epoch 00016: LearningRateScheduler setting learning rate to 0.2.
[1,1]<stdout>:
[1,1]<stdout>:Epoch 00016: LearningRateScheduler setting learning rate to 0.2.
[1,0]<stdout>:195/195 [==============================] - 211s 1s/step - loss: 0.5879 - acc: 0.8408 - val_loss: 1.0019 - val_acc: 0.7207
[1,0]<stdout>:Epoch 17/200
[1,0]<stdout>:
[1,0]<stdout>:Epoch 00017: LearningRateScheduler setting learning rate to 0.2.
[1,1]<stdout>:
[1,1]<stdout>:Epoch 00017: LearningRateScheduler setting learning rate to 0.2.
[1,0]<stdout>:195/195 [==============================] - 211s 1s/step - loss: 0.5755 - acc: 0.8455 - val_loss: 1.3107 - val_acc: 0.6606
[1,0]<stdout>:Epoch 18/200
[1,0]<stdout>:
[1,0]<stdout>:Epoch 00018: LearningRateScheduler setting learning rate to 0.2.
[1,1]<stdout>:
[1,1]<stdout>:Epoch 00018: LearningRateScheduler setting learning rate to 0.2.
[1,0]<stdout>:195/195 [==============================] - 211s 1s/step - loss: 0.5719 - acc: 0.8472 - val_loss: 0.9021 - val_acc: 0.7407
[1,0]<stdout>:Epoch 19/200
[1,0]<stdout>:
[1,0]<stdout>:Epoch 00019: LearningRateScheduler setting learning rate to 0.2.
[1,1]<stdout>:
[1,1]<stdout>:Epoch 00019: LearningRateScheduler setting learning rate to 0.2.
[1,0]<stdout>:195/195 [==============================] - 212s 1s/step - loss: 0.5598 - acc: 0.8521 - val_loss: 1.4331 - val_acc: 0.6344
[1,0]<stdout>:Epoch 20/200
[1,1]<stdout>:
[1,1]<stdout>:Epoch 00020: LearningRateScheduler setting learning rate to 0.2.
[1,0]<stdout>:
[1,0]<stdout>:Epoch 00020: LearningRateScheduler setting learning rate to 0.2.
[1,0]<stdout>:195/195 [==============================] - 212s 1s/step - loss: 0.5478 - acc: 0.8546 - val_loss: 1.0607 - val_acc: 0.7225
[1,0]<stdout>:Epoch 21/200
[1,1]<stdout>:
[1,1]<stdout>:Epoch 00021: LearningRateScheduler setting learning rate to 0.2.
[1,0]<stdout>:
[1,0]<stdout>:Epoch 00021: LearningRateScheduler setting learning rate to 0.2.
[1,0]<stdout>:195/195 [==============================] - 212s 1s/step - loss: 0.5336 - acc: 0.8609 - val_loss: 1.2662 - val_acc: 0.6987
[1,0]<stdout>:Epoch 22/200
[1,0]<stdout>:
[1,0]<stdout>:Epoch 00022: LearningRateScheduler setting learning rate to 0.2.
[1,1]<stdout>:
[1,1]<stdout>:Epoch 00022: LearningRateScheduler setting learning rate to 0.2.
[1,0]<stdout>:195/195 [==============================] - 212s 1s/step - loss: 0.5424 - acc: 0.8601 - val_loss: 0.9113 - val_acc: 0.7507
[1,1]<stdout>:
[1,1]<stdout>:Epoch 00022: ReduceLROnPlateau reducing learning rate to 0.020000000298023225.
[1,0]<stdout>:
[1,0]<stdout>:Epoch 00022: ReduceLROnPlateau reducing learning rate to 0.020000000298023225.
[1,0]<stdout>:Epoch 23/200
[1,1]<stdout>:
[1,1]<stdout>:Epoch 00023: LearningRateScheduler setting learning rate to 0.2.
[1,0]<stdout>:
[1,0]<stdout>:Epoch 00023: LearningRateScheduler setting learning rate to 0.2.
[1,0]<stdout>:195/195 [==============================] - 212s 1s/step - loss: 0.5220 - acc: 0.8649 - val_loss: 1.0628 - val_acc: 0.7246
[1,0]<stdout>:Epoch 24/200
[1,0]<stdout>:
[1,0]<stdout>:Epoch 00024: LearningRateScheduler setting learning rate to 0.2.
[1,1]<stdout>:
[1,1]<stdout>:Epoch 00024: LearningRateScheduler setting learning rate to 0.2.
[1,0]<stdout>:195/195 [==============================] - 212s 1s/step - loss: 0.5304 - acc: 0.8623 - val_loss: 1.0811 - val_acc: 0.7241
[1,0]<stdout>:Epoch 25/200
[1,0]<stdout>:
[1,0]<stdout>:Epoch 00025: LearningRateScheduler setting learning rate to 0.2.
[1,1]<stdout>:
[1,1]<stdout>:Epoch 00025: LearningRateScheduler setting learning rate to 0.2.
[1,0]<stdout>:195/195 [==============================] - 210s 1s/step - loss: 0.5124 - acc: 0.8708 - val_loss: 0.8714 - val_acc: 0.7661
[1,0]<stdout>:Epoch 26/200
[1,0]<stdout>:
[1,0]<stdout>:Epoch 00026: LearningRateScheduler setting learning rate to 0.2.
[1,1]<stdout>:
[1,1]<stdout>:Epoch 00026: LearningRateScheduler setting learning rate to 0.2.
[1,0]<stdout>:195/195 [==============================] - 211s 1s/step - loss: 0.5056 - acc: 0.8723 - val_loss: 0.8221 - val_acc: 0.7870
[1,0]<stdout>:Epoch 27/200
[1,0]<stdout>:
[1,0]<stdout>:Epoch 00027: LearningRateScheduler setting learning rate to 0.2.
[1,1]<stdout>:
[1,1]<stdout>:Epoch 00027: LearningRateScheduler setting learning rate to 0.2.
[1,0]<stdout>:195/195 [==============================] - 211s 1s/step - loss: 0.4997 - acc: 0.8723 - val_loss: 1.0613 - val_acc: 0.7344
[1,0]<stdout>:Epoch 28/200
[1,1]<stdout>:
[1,1]<stdout>:Epoch 00028: LearningRateScheduler setting learning rate to 0.2.
[1,0]<stdout>:
[1,0]<stdout>:Epoch 00028: LearningRateScheduler setting learning rate to 0.2.
[1,0]<stdout>:195/195 [==============================] - 211s 1s/step - loss: 0.5025 - acc: 0.8748 - val_loss: 0.7179 - val_acc: 0.8070
[1,1]<stdout>:
[1,1]<stdout>:Epoch 00029: LearningRateScheduler setting learning rate to 0.2.
[1,0]<stdout>:Epoch 29/200
[1,0]<stdout>:
[1,0]<stdout>:Epoch 00029: LearningRateScheduler setting learning rate to 0.2.
[1,0]<stdout>:195/195 [==============================] - 211s 1s/step - loss: 0.4912 - acc: 0.8777 - val_loss: 1.1510 - val_acc: 0.6997
[1,0]<stdout>:Epoch 30/200
[1,1]<stdout>:
[1,1]<stdout>:Epoch 00030: LearningRateScheduler setting learning rate to 0.2.
[1,0]<stdout>:
[1,0]<stdout>:Epoch 00030: LearningRateScheduler setting learning rate to 0.2.
[1,0]<stdout>:195/195 [==============================] - 212s 1s/step - loss: 0.4922 - acc: 0.8769 - val_loss: 0.8810 - val_acc: 0.7857
[1,0]<stdout>:Epoch 31/200
[1,0]<stdout>:
[1,0]<stdout>:Epoch 00031: LearningRateScheduler setting learning rate to 0.2.
[1,1]<stdout>:
[1,1]<stdout>:Epoch 00031: LearningRateScheduler setting learning rate to 0.2.
[1,0]<stdout>:195/195 [==============================] - 211s 1s/step - loss: 0.4899 - acc: 0.8785 - val_loss: 1.0100 - val_acc: 0.7267
[1,0]<stdout>:Epoch 32/200
[1,1]<stdout>:
[1,1]<stdout>:Epoch 00032: LearningRateScheduler setting learning rate to 0.2.
[1,0]<stdout>:
[1,0]<stdout>:Epoch 00032: LearningRateScheduler setting learning rate to 0.2.
[1,0]<stdout>:195/195 [==============================] - 212s 1s/step - loss: 0.4804 - acc: 0.8823 - val_loss: 0.7953 - val_acc: 0.7947
[1,0]<stdout>:Epoch 33/200
[1,0]<stdout>:
[1,0]<stdout>:Epoch 00033: LearningRateScheduler setting learning rate to 0.2.
[1,1]<stdout>:
[1,1]<stdout>:Epoch 00033: LearningRateScheduler setting learning rate to 0.2.
[1,0]<stdout>:195/195 [==============================] - 212s 1s/step - loss: 0.4719 - acc: 0.8839 - val_loss: 0.7153 - val_acc: 0.8202
[1,0]<stdout>:Epoch 34/200
[1,0]<stdout>:
[1,0]<stdout>:Epoch 00034: LearningRateScheduler setting learning rate to 0.2.
[1,1]<stdout>:
[1,1]<stdout>:Epoch 00034: LearningRateScheduler setting learning rate to 0.2.
[1,0]<stdout>:195/195 [==============================] - 212s 1s/step - loss: 0.4703 - acc: 0.8843 - val_loss: 0.8739 - val_acc: 0.7779
[1,0]<stdout>:Epoch 35/200
[1,0]<stdout>:
[1,0]<stdout>:Epoch 00035: LearningRateScheduler setting learning rate to 0.2.
[1,1]<stdout>:
[1,1]<stdout>:Epoch 00035: LearningRateScheduler setting learning rate to 0.2.
[1,0]<stdout>:195/195 [==============================] - 212s 1s/step - loss: 0.4696 - acc: 0.8851 - val_loss: 0.7896 - val_acc: 0.7948
[1,0]<stdout>:Epoch 36/200
[1,0]<stdout>:
[1,0]<stdout>:Epoch 00036: LearningRateScheduler setting learning rate to 0.2.
[1,1]<stdout>:
[1,1]<stdout>:Epoch 00036: LearningRateScheduler setting learning rate to 0.2.
[1,0]<stdout>:195/195 [==============================] - 212s 1s/step - loss: 0.4627 - acc: 0.8854 - val_loss: 0.7931 - val_acc: 0.7925
[1,0]<stdout>:Epoch 37/200
[1,0]<stdout>:
[1,0]<stdout>:Epoch 00037: LearningRateScheduler setting learning rate to 0.2.[1,0]<stdout>:
[1,1]<stdout>:
[1,1]<stdout>:Epoch 00037: LearningRateScheduler setting learning rate to 0.2.
[1,0]<stdout>:195/195 [==============================] - 211s 1s/step - loss: 0.4450 - acc: 0.8939 - val_loss: 0.7943 - val_acc: 0.7995
[1,0]<stdout>:Epoch 38/200
[1,1]<stdout>:
[1,1]<stdout>:Epoch 00038: LearningRateScheduler setting learning rate to 0.2.
[1,0]<stdout>:
[1,0]<stdout>:Epoch 00038: LearningRateScheduler setting learning rate to 0.2.
[1,0]<stdout>:195/195 [==============================] - 212s 1s/step - loss: 0.4593 - acc: 0.8892 - val_loss: 1.0104 - val_acc: 0.7531
[1,0]<stdout>:Epoch 39/200
[1,0]<stdout>:
[1,0]<stdout>:Epoch 00039: LearningRateScheduler setting learning rate to 0.2.
[1,1]<stdout>:
[1,1]<stdout>:Epoch 00039: LearningRateScheduler setting learning rate to 0.2.
[1,0]<stdout>:195/195 [==============================] - 211s 1s/step - loss: 0.4476 - acc: 0.8918 - val_loss: 1.2855 - val_acc: 0.6898
[1,0]<stdout>:Epoch 40/200
[1,0]<stdout>:
[1,0]<stdout>:Epoch 00040: LearningRateScheduler setting learning rate to 0.2.
[1,1]<stdout>:
[1,1]<stdout>:Epoch 00040: LearningRateScheduler setting learning rate to 0.2.
[1,0]<stdout>:195/195 [==============================] - 213s 1s/step - loss: 0.4530 - acc: 0.8882 - val_loss: 1.1804 - val_acc: 0.7342
[1,0]<stdout>:Epoch 41/200
[1,1]<stdout>:
[1,1]<stdout>:Epoch 00041: LearningRateScheduler setting learning rate to 0.2.
[1,0]<stdout>:
[1,0]<stdout>:Epoch 00041: LearningRateScheduler setting learning rate to 0.2.
[1,0]<stdout>:195/195 [==============================] - 209s 1s/step - loss: 0.4403 - acc: 0.8961 - val_loss: 0.9618 - val_acc: 0.7696
[1,0]<stdout>:Epoch 42/200
[1,0]<stdout>:
[1,0]<stdout>:Epoch 00042: LearningRateScheduler setting learning rate to 0.2.
[1,1]<stdout>:
[1,1]<stdout>:Epoch 00042: LearningRateScheduler setting learning rate to 0.2.
[1,0]<stdout>:195/195 [==============================] - 210s 1s/step - loss: 0.4508 - acc: 0.8921 - val_loss: 0.9674 - val_acc: 0.7593
[1,0]<stdout>:Epoch 43/200
[1,0]<stdout>:
[1,0]<stdout>:Epoch 00043: LearningRateScheduler setting learning rate to 0.2.
[1,1]<stdout>:
[1,1]<stdout>:Epoch 00043: LearningRateScheduler setting learning rate to 0.2.
[1,0]<stdout>:195/195 [==============================] - 211s 1s/step - loss: 0.4320 - acc: 0.8977 - val_loss: 0.9813 - val_acc: 0.7564
[1,0]<stdout>:
[1,0]<stdout>:Epoch 00043: ReduceLROnPlateau reducing learning rate to 0.020000000298023225.
[1,0]<stdout>:Epoch 44/200
[1,0]<stdout>:
[1,0]<stdout>:Epoch 00044: LearningRateScheduler setting learning rate to 0.2.
[1,1]<stdout>:
[1,1]<stdout>:Epoch 00043: ReduceLROnPlateau reducing learning rate to 0.020000000298023225.
[1,1]<stdout>:
[1,1]<stdout>:Epoch 00044: LearningRateScheduler setting learning rate to 0.2.
[1,0]<stdout>:195/195 [==============================] - 211s 1s/step - loss: 0.4359 - acc: 0.8950 - val_loss: 0.8516 - val_acc: 0.7934
[1,0]<stdout>:Epoch 45/200
[1,1]<stdout>:
[1,1]<stdout>:Epoch 00045: LearningRateScheduler setting learning rate to 0.2.
[1,0]<stdout>:
[1,0]<stdout>:Epoch 00045: LearningRateScheduler setting learning rate to 0.2.
[1,0]<stdout>:195/195 [==============================] - 210s 1s/step - loss: 0.4288 - acc: 0.9011 - val_loss: 1.1345 - val_acc: 0.7296
[1,0]<stdout>:Epoch 46/200
[1,1]<stdout>:
[1,1]<stdout>:Epoch 00046: LearningRateScheduler setting learning rate to 0.2.
[1,0]<stdout>:
[1,0]<stdout>:Epoch 00046: LearningRateScheduler setting learning rate to 0.2.
[1,0]<stdout>:195/195 [==============================] - 211s 1s/step - loss: 0.4382 - acc: 0.8954 - val_loss: 0.8969 - val_acc: 0.7788
[1,0]<stdout>:Epoch 47/200
[1,0]<stdout>:
[1,0]<stdout>:Epoch 00047: LearningRateScheduler setting learning rate to 0.2.
[1,1]<stdout>:
[1,1]<stdout>:Epoch 00047: LearningRateScheduler setting learning rate to 0.2.
[1,0]<stdout>:195/195 [==============================] - 211s 1s/step - loss: 0.4270 - acc: 0.9000 - val_loss: 0.6522 - val_acc: 0.8325
[1,0]<stdout>:Epoch 48/200
[1,0]<stdout>:
[1,0]<stdout>:Epoch 00048: LearningRateScheduler setting learning rate to 0.2.
[1,1]<stdout>:
[1,1]<stdout>:Epoch 00048: LearningRateScheduler setting learning rate to 0.2.
[1,0]<stdout>:195/195 [==============================] - 211s 1s/step - loss: 0.4259 - acc: 0.9000 - val_loss: 0.8826 - val_acc: 0.7771
[1,0]<stdout>:Epoch 49/200
[1,1]<stdout>:
[1,1]<stdout>:Epoch 00049: LearningRateScheduler setting learning rate to 0.2.
[1,0]<stdout>:
[1,0]<stdout>:Epoch 00049: LearningRateScheduler setting learning rate to 0.2.
[1,0]<stdout>:195/195 [==============================] - 211s 1s/step - loss: 0.4160 - acc: 0.9033 - val_loss: 0.8466 - val_acc: 0.8092
[1,0]<stdout>:Epoch 50/200
[1,1]<stdout>:
[1,1]<stdout>:Epoch 00050: LearningRateScheduler setting learning rate to 0.2.
[1,0]<stdout>:
[1,0]<stdout>:Epoch 00050: LearningRateScheduler setting learning rate to 0.2.
[1,0]<stdout>:195/195 [==============================] - 211s 1s/step - loss: 0.4161 - acc: 0.9032 - val_loss: 0.8383 - val_acc: 0.7921
[1,0]<stdout>:Epoch 51/200
[1,1]<stdout>:
[1,1]<stdout>:Epoch 00051: LearningRateScheduler setting learning rate to 0.2.
[1,0]<stdout>:
[1,0]<stdout>:Epoch 00051: LearningRateScheduler setting learning rate to 0.2.
[1,0]<stdout>:195/195 [==============================] - 211s 1s/step - loss: 0.4151 - acc: 0.9023 - val_loss: 0.7497 - val_acc: 0.8178
[1,0]<stdout>:Epoch 52/200
[1,0]<stdout>:
[1,0]<stdout>:Epoch 00052: LearningRateScheduler setting learning rate to 0.2.
[1,1]<stdout>:
[1,1]<stdout>:Epoch 00052: LearningRateScheduler setting learning rate to 0.2.
[1,0]<stdout>:195/195 [==============================] - 210s 1s/step - loss: 0.4168 - acc: 0.9023 - val_loss: 0.8163 - val_acc: 0.8054
[1,0]<stdout>:Epoch 53/200
[1,0]<stdout>:
[1,0]<stdout>:Epoch 00053: LearningRateScheduler setting learning rate to 0.2.
[1,1]<stdout>:
[1,1]<stdout>:Epoch 00053: LearningRateScheduler setting learning rate to 0.2.
[1,0]<stdout>:195/195 [==============================] - 211s 1s/step - loss: 0.4170 - acc: 0.9032 - val_loss: 0.7088 - val_acc: 0.8216
[1,0]<stdout>:Epoch 54/200
[1,1]<stdout>:
[1,1]<stdout>:Epoch 00054: LearningRateScheduler setting learning rate to 0.2.
[1,0]<stdout>:
[1,0]<stdout>:Epoch 00054: LearningRateScheduler setting learning rate to 0.2.[1,0]<stdout>:
[1,0]<stdout>:195/195 [==============================] - 211s 1s/step - loss: 0.4092 - acc: 0.9060 - val_loss: 0.6728 - val_acc: 0.8333
[1,1]<stdout>:
[1,1]<stdout>:Epoch 00055: LearningRateScheduler setting learning rate to 0.2.
[1,0]<stdout>:Epoch 55/200
[1,0]<stdout>:
[1,0]<stdout>:Epoch 00055: LearningRateScheduler setting learning rate to 0.2.
[1,0]<stdout>:195/195 [==============================] - 210s 1s/step - loss: 0.4031 - acc: 0.9066 - val_loss: 0.6297 - val_acc: 0.8363
[1,0]<stdout>:Epoch 56/200
[1,0]<stdout>:
[1,0]<stdout>:Epoch 00056: LearningRateScheduler setting learning rate to 0.2.
[1,1]<stdout>:
[1,1]<stdout>:Epoch 00056: LearningRateScheduler setting learning rate to 0.2.
[1,0]<stdout>:195/195 [==============================] - 210s 1s/step - loss: 0.4079 - acc: 0.9052 - val_loss: 0.6682 - val_acc: 0.8320
[1,0]<stdout>:Epoch 57/200
[1,0]<stdout>:
[1,0]<stdout>:Epoch 00057: LearningRateScheduler setting learning rate to 0.2.
[1,1]<stdout>:
[1,1]<stdout>:Epoch 00057: LearningRateScheduler setting learning rate to 0.2.
[1,0]<stdout>:195/195 [==============================] - 211s 1s/step - loss: 0.3936 - acc: 0.9102 - val_loss: 0.6461 - val_acc: 0.8423
[1,0]<stdout>:Epoch 58/200
[1,1]<stdout>:
[1,1]<stdout>:Epoch 00058: LearningRateScheduler setting learning rate to 0.2.
[1,0]<stdout>:
[1,0]<stdout>:Epoch 00058: LearningRateScheduler setting learning rate to 0.2.
[1,0]<stdout>:195/195 [==============================] - 211s 1s/step - loss: 0.4024 - acc: 0.9070 - val_loss: 0.6892 - val_acc: 0.8289
[1,0]<stdout>:Epoch 59/200
[1,0]<stdout>:
[1,0]<stdout>:Epoch 00059: LearningRateScheduler setting learning rate to 0.2.
[1,1]<stdout>:
[1,1]<stdout>:Epoch 00059: LearningRateScheduler setting learning rate to 0.2.
[1,0]<stdout>:195/195 [==============================] - 211s 1s/step - loss: 0.3988 - acc: 0.9077 - val_loss: 0.8872 - val_acc: 0.7780
[1,0]<stdout>:Epoch 60/200
[1,0]<stdout>:
[1,0]<stdout>:Epoch 00060: LearningRateScheduler setting learning rate to 0.2.
[1,1]<stdout>:
[1,1]<stdout>:Epoch 00060: LearningRateScheduler setting learning rate to 0.2.
[1,0]<stdout>:195/195 [==============================] - 212s 1s/step - loss: 0.4032 - acc: 0.9071 - val_loss: 0.7274 - val_acc: 0.8262
[1,0]<stdout>:Epoch 61/200
[1,0]<stdout>:
[1,0]<stdout>:Epoch 00061: LearningRateScheduler setting learning rate to 0.2.
[1,1]<stdout>:
[1,1]<stdout>:Epoch 00061: LearningRateScheduler setting learning rate to 0.2.
[1,0]<stdout>:195/195 [==============================] - 211s 1s/step - loss: 0.3902 - acc: 0.9121 - val_loss: 0.9464 - val_acc: 0.7654
[1,0]<stdout>:Epoch 62/200
[1,1]<stdout>:
[1,1]<stdout>:Epoch 00062: LearningRateScheduler setting learning rate to 0.2.
[1,0]<stdout>:
[1,0]<stdout>:Epoch 00062: LearningRateScheduler setting learning rate to 0.2.
[1,0]<stdout>:195/195 [==============================] - 211s 1s/step - loss: 0.3934 - acc: 0.9100 - val_loss: 0.8622 - val_acc: 0.8013
[1,0]<stdout>:Epoch 63/200
[1,0]<stdout>:
[1,0]<stdout>:Epoch 00063: LearningRateScheduler setting learning rate to 0.2.
[1,1]<stdout>:
[1,1]<stdout>:Epoch 00063: LearningRateScheduler setting learning rate to 0.2.
[1,0]<stdout>:195/195 [==============================] - 210s 1s/step - loss: 0.3860 - acc: 0.9137 - val_loss: 0.7872 - val_acc: 0.8144
[1,0]<stdout>:Epoch 64/200
[1,0]<stdout>:
[1,0]<stdout>:Epoch 00064: LearningRateScheduler setting learning rate to 0.2.
[1,1]<stdout>:
[1,1]<stdout>:Epoch 00064: LearningRateScheduler setting learning rate to 0.2.
[1,0]<stdout>:195/195 [==============================] - 210s 1s/step - loss: 0.3931 - acc: 0.9109 - val_loss: 0.6641 - val_acc: 0.8394
[1,0]<stdout>:Epoch 65/200
[1,1]<stdout>:
[1,1]<stdout>:Epoch 00065: LearningRateScheduler setting learning rate to 0.2.
[1,0]<stdout>:
[1,0]<stdout>:Epoch 00065: LearningRateScheduler setting learning rate to 0.2.
[1,0]<stdout>:195/195 [==============================] - 211s 1s/step - loss: 0.3811 - acc: 0.9144 - val_loss: 0.6322 - val_acc: 0.8463
[1,0]<stdout>:
[1,0]<stdout>:Epoch 00065: ReduceLROnPlateau reducing learning rate to 0.020000000298023225.
[1,0]<stdout>:Epoch 66/200
[1,1]<stdout>:
[1,1]<stdout>:Epoch 00065: ReduceLROnPlateau reducing learning rate to 0.020000000298023225.
[1,0]<stdout>:
[1,0]<stdout>:Epoch 00066: LearningRateScheduler setting learning rate to 0.2.[1,0]<stdout>:
[1,1]<stdout>:
[1,1]<stdout>:Epoch 00066: LearningRateScheduler setting learning rate to 0.2.
[1,0]<stdout>:195/195 [==============================] - 211s 1s/step - loss: 0.3852 - acc: 0.9122 - val_loss: 0.6213 - val_acc: 0.8476
[1,0]<stdout>:Epoch 67/200
[1,0]<stdout>:
[1,0]<stdout>:Epoch 00067: LearningRateScheduler setting learning rate to 0.2.
[1,1]<stdout>:
[1,1]<stdout>:Epoch 00067: LearningRateScheduler setting learning rate to 0.2.
[1,0]<stdout>:195/195 [==============================] - 210s 1s/step - loss: 0.3808 - acc: 0.9142 - val_loss: 0.8953 - val_acc: 0.7821
[1,0]<stdout>:Epoch 68/200
[1,0]<stdout>:
[1,0]<stdout>:Epoch 00068: LearningRateScheduler setting learning rate to 0.2.
[1,1]<stdout>:
[1,1]<stdout>:Epoch 00068: LearningRateScheduler setting learning rate to 0.2.
[1,0]<stdout>:195/195 [==============================] - 210s 1s/step - loss: 0.3797 - acc: 0.9156 - val_loss: 0.8039 - val_acc: 0.8138
[1,0]<stdout>:Epoch 69/200
[1,1]<stdout>:
[1,1]<stdout>:Epoch 00069: LearningRateScheduler setting learning rate to 0.2.
[1,0]<stdout>:
[1,0]<stdout>:Epoch 00069: LearningRateScheduler setting learning rate to 0.2.
[1,0]<stdout>:195/195 [==============================] - 210s 1s/step - loss: 0.3693 - acc: 0.9197 - val_loss: 0.9120 - val_acc: 0.7824
[1,0]<stdout>:Epoch 70/200
[1,1]<stdout>:
[1,1]<stdout>:Epoch 00070: LearningRateScheduler setting learning rate to 0.2.
[1,0]<stdout>:
[1,0]<stdout>:Epoch 00070: LearningRateScheduler setting learning rate to 0.2.
[1,0]<stdout>:195/195 [==============================] - 211s 1s/step - loss: 0.3783 - acc: 0.9167 - val_loss: 0.7974 - val_acc: 0.8125
[1,0]<stdout>:Epoch 71/200
[1,0]<stdout>:
[1,0]<stdout>:Epoch 00071: LearningRateScheduler setting learning rate to 0.2.
[1,1]<stdout>:
[1,1]<stdout>:Epoch 00071: LearningRateScheduler setting learning rate to 0.2.
[1,0]<stdout>:195/195 [==============================] - 210s 1s/step - loss: 0.3700 - acc: 0.9190 - val_loss: 0.7018 - val_acc: 0.8340
[1,0]<stdout>:Epoch 72/200
[1,0]<stdout>:
[1,0]<stdout>:Epoch 00072: LearningRateScheduler setting learning rate to 0.2.
[1,1]<stdout>:
[1,1]<stdout>:Epoch 00072: LearningRateScheduler setting learning rate to 0.2.
[1,0]<stdout>:195/195 [==============================] - 211s 1s/step - loss: 0.3791 - acc: 0.9162 - val_loss: 0.6936 - val_acc: 0.8253
[1,0]<stdout>:Epoch 73/200
[1,0]<stdout>:
[1,0]<stdout>:Epoch 00073: LearningRateScheduler setting learning rate to 0.2.
[1,1]<stdout>:
[1,1]<stdout>:Epoch 00073: LearningRateScheduler setting learning rate to 0.2.
[1,0]<stdout>:195/195 [==============================] - 210s 1s/step - loss: 0.3690 - acc: 0.9180 - val_loss: 0.6708 - val_acc: 0.8464
[1,0]<stdout>:Epoch 74/200
[1,0]<stdout>:
[1,0]<stdout>:Epoch 00074: LearningRateScheduler setting learning rate to 0.2.
[1,1]<stdout>:
[1,1]<stdout>:Epoch 00074: LearningRateScheduler setting learning rate to 0.2.
[1,0]<stdout>:195/195 [==============================] - 211s 1s/step - loss: 0.3695 - acc: 0.9174 - val_loss: 0.6601 - val_acc: 0.8345
[1,0]<stdout>:Epoch 75/200
[1,0]<stdout>:
[1,0]<stdout>:Epoch 00075: LearningRateScheduler setting learning rate to 0.2.
[1,1]<stdout>:
[1,1]<stdout>:Epoch 00075: LearningRateScheduler setting learning rate to 0.2.
[1,0]<stdout>:195/195 [==============================] - 209s 1s/step - loss: 0.3621 - acc: 0.9217 - val_loss: 0.6934 - val_acc: 0.8335
[1,0]<stdout>:Epoch 76/200
[1,1]<stdout>:
[1,1]<stdout>:Epoch 00076: LearningRateScheduler setting learning rate to 0.2.
[1,0]<stdout>:
[1,0]<stdout>:Epoch 00076: LearningRateScheduler setting learning rate to 0.2.
[1,0]<stdout>:195/195 [==============================] - 205s 1s/step - loss: 0.3675 - acc: 0.9190 - val_loss: 0.7434 - val_acc: 0.8291
[1,0]<stdout>:
[1,0]<stdout>:Epoch 00076: ReduceLROnPlateau reducing learning rate to 0.020000000298023225.
[1,1]<stdout>:
[1,1]<stdout>:Epoch 00076: ReduceLROnPlateau reducing learning rate to 0.020000000298023225.
[1,0]<stdout>:Epoch 77/200
[1,1]<stdout>:
[1,1]<stdout>:Epoch 00077: LearningRateScheduler setting learning rate to 0.2.
[1,0]<stdout>:
[1,0]<stdout>:Epoch 00077: LearningRateScheduler setting learning rate to 0.2.
[1,0]<stdout>:195/195 [==============================] - 204s 1s/step - loss: 0.3527 - acc: 0.9225 - val_loss: 0.7275 - val_acc: 0.8351
[1,0]<stdout>:Epoch 78/200
[1,0]<stdout>:
[1,0]<stdout>:Epoch 00078: LearningRateScheduler setting learning rate to 0.2.
[1,1]<stdout>:
[1,1]<stdout>:Epoch 00078: LearningRateScheduler setting learning rate to 0.2.
[1,0]<stdout>:195/195 [==============================] - 205s 1s/step - loss: 0.3647 - acc: 0.9202 - val_loss: 0.7473 - val_acc: 0.8189
[1,0]<stdout>:Epoch 79/200
[1,0]<stdout>:
[1,0]<stdout>:Epoch 00079: LearningRateScheduler setting learning rate to 0.2.
[1,1]<stdout>:
[1,1]<stdout>:Epoch 00079: LearningRateScheduler setting learning rate to 0.2.
[1,0]<stdout>:195/195 [==============================] - 205s 1s/step - loss: 0.3520 - acc: 0.9243 - val_loss: 0.9431 - val_acc: 0.7942
[1,0]<stdout>:Epoch 80/200
[1,0]<stdout>:
[1,0]<stdout>:Epoch 00080: LearningRateScheduler setting learning rate to 0.2.
[1,1]<stdout>:
[1,1]<stdout>:Epoch 00080: LearningRateScheduler setting learning rate to 0.2.
[1,0]<stdout>:195/195 [==============================] - 205s 1s/step - loss: 0.3715 - acc: 0.9165 - val_loss: 0.7524 - val_acc: 0.8146
[1,0]<stdout>:Epoch 81/200
[1,1]<stdout>:
[1,1]<stdout>:Epoch 00081: LearningRateScheduler setting learning rate to 0.2.
[1,0]<stdout>:
[1,0]<stdout>:Epoch 00081: LearningRateScheduler setting learning rate to 0.2.
[1,0]<stdout>:195/195 [==============================] - 204s 1s/step - loss: 0.3590 - acc: 0.9202 - val_loss: 0.7629 - val_acc: 0.8212
[1,0]<stdout>:Epoch 82/200
[1,1]<stdout>:
[1,1]<stdout>:Epoch 00082: LearningRateScheduler setting learning rate to 0.020000000000000004.
[1,0]<stdout>:
[1,0]<stdout>:Epoch 00082: LearningRateScheduler setting learning rate to 0.020000000000000004.
[1,0]<stdout>:195/195 [==============================] - 205s 1s/step - loss: 0.3349 - acc: 0.9299 - val_loss: 0.4699 - val_acc: 0.8913
[1,0]<stdout>:Epoch 83/200
[1,0]<stdout>:
[1,0]<stdout>:Epoch 00083: LearningRateScheduler setting learning rate to 0.020000000000000004.
[1,1]<stdout>:
[1,1]<stdout>:Epoch 00083: LearningRateScheduler setting learning rate to 0.020000000000000004.
[1,0]<stdout>:195/195 [==============================] - 205s 1s/step - loss: 0.2790 - acc: 0.9515 - val_loss: 0.4516 - val_acc: 0.9008
[1,0]<stdout>:Epoch 84/200
[1,0]<stdout>:
[1,0]<stdout>:Epoch 00084: LearningRateScheduler setting learning rate to 0.020000000000000004.
[1,1]<stdout>:
[1,1]<stdout>:Epoch 00084: LearningRateScheduler setting learning rate to 0.020000000000000004.
[1,0]<stdout>:195/195 [==============================] - 205s 1s/step - loss: 0.2710 - acc: 0.9531 - val_loss: 0.4515 - val_acc: 0.8994
[1,0]<stdout>:Epoch 85/200
[1,0]<stdout>:
[1,0]<stdout>:Epoch 00085: LearningRateScheduler setting learning rate to 0.020000000000000004.[1,0]<stdout>:
[1,1]<stdout>:
[1,1]<stdout>:Epoch 00085: LearningRateScheduler setting learning rate to 0.020000000000000004.
[1,0]<stdout>:195/195 [==============================] - 205s 1s/step - loss: 0.2597 - acc: 0.9562 - val_loss: 0.4584 - val_acc: 0.8980
[1,0]<stdout>:Epoch 86/200
[1,0]<stdout>:
[1,0]<stdout>:Epoch 00086: LearningRateScheduler setting learning rate to 0.020000000000000004.
[1,1]<stdout>:
[1,1]<stdout>:Epoch 00086: LearningRateScheduler setting learning rate to 0.020000000000000004.
[1,0]<stdout>:195/195 [==============================] - 205s 1s/step - loss: 0.2568 - acc: 0.9573 - val_loss: 0.4695 - val_acc: 0.8961
[1,0]<stdout>:Epoch 87/200
[1,0]<stdout>:
[1,0]<stdout>:Epoch 00087: LearningRateScheduler setting learning rate to 0.020000000000000004.
[1,1]<stdout>:
[1,1]<stdout>:Epoch 00087: LearningRateScheduler setting learning rate to 0.020000000000000004.
[1,0]<stdout>:195/195 [==============================] - 205s 1s/step - loss: 0.2481 - acc: 0.9600 - val_loss: 0.4424 - val_acc: 0.9028
[1,0]<stdout>:Epoch 88/200
[1,0]<stdout>:
[1,0]<stdout>:Epoch 00088: LearningRateScheduler setting learning rate to 0.020000000000000004.
[1,1]<stdout>:
[1,1]<stdout>:Epoch 00088: LearningRateScheduler setting learning rate to 0.020000000000000004.
[1,0]<stdout>:195/195 [==============================] - 205s 1s/step - loss: 0.2504 - acc: 0.9585 - val_loss: 0.4486 - val_acc: 0.9007
[1,0]<stdout>:Epoch 89/200
[1,0]<stdout>:
[1,0]<stdout>:Epoch 00089: LearningRateScheduler setting learning rate to 0.020000000000000004.
[1,1]<stdout>:
[1,1]<stdout>:Epoch 00089: LearningRateScheduler setting learning rate to 0.020000000000000004.
[1,0]<stdout>:195/195 [==============================] - 204s 1s/step - loss: 0.2428 - acc: 0.9620 - val_loss: 0.4554 - val_acc: 0.8992
[1,0]<stdout>:Epoch 90/200
[1,0]<stdout>:
[1,0]<stdout>:Epoch 00090: LearningRateScheduler setting learning rate to 0.020000000000000004.
[1,1]<stdout>:
[1,1]<stdout>:Epoch 00090: LearningRateScheduler setting learning rate to 0.020000000000000004.
[1,0]<stdout>:195/195 [==============================] - 205s 1s/step - loss: 0.2416 - acc: 0.9615 - val_loss: 0.4461 - val_acc: 0.9000
[1,0]<stdout>:Epoch 91/200
[1,0]<stdout>:
[1,0]<stdout>:Epoch 00091: LearningRateScheduler setting learning rate to 0.020000000000000004.
[1,1]<stdout>:
[1,1]<stdout>:Epoch 00091: LearningRateScheduler setting learning rate to 0.020000000000000004.
[1,0]<stdout>:195/195 [==============================] - 204s 1s/step - loss: 0.2348 - acc: 0.9644 - val_loss: 0.4491 - val_acc: 0.9013
[1,0]<stdout>:Epoch 92/200
[1,0]<stdout>:
[1,0]<stdout>:Epoch 00092: LearningRateScheduler setting learning rate to 0.020000000000000004.
[1,1]<stdout>:
[1,1]<stdout>:Epoch 00092: LearningRateScheduler setting learning rate to 0.020000000000000004.
[1,0]<stdout>:195/195 [==============================] - 206s 1s/step - loss: 0.2374 - acc: 0.9630 - val_loss: 0.4652 - val_acc: 0.9003
[1,0]<stdout>:Epoch 93/200
[1,0]<stdout>:
[1,0]<stdout>:Epoch 00093: LearningRateScheduler setting learning rate to 0.020000000000000004.
[1,1]<stdout>:
[1,1]<stdout>:Epoch 00093: LearningRateScheduler setting learning rate to 0.020000000000000004.
[1,0]<stdout>:195/195 [==============================] - 208s 1s/step - loss: 0.2306 - acc: 0.9636 - val_loss: 0.4549 - val_acc: 0.9007
[1,0]<stdout>:Epoch 94/200
[1,0]<stdout>:
[1,0]<stdout>:Epoch 00094: LearningRateScheduler setting learning rate to 0.020000000000000004.
[1,1]<stdout>:
[1,1]<stdout>:Epoch 00094: LearningRateScheduler setting learning rate to 0.020000000000000004.
[1,0]<stdout>:195/195 [==============================] - 210s 1s/step - loss: 0.2290 - acc: 0.9648 - val_loss: 0.4459 - val_acc: 0.9020
[1,0]<stdout>:Epoch 95/200
[1,0]<stdout>:
[1,0]<stdout>:Epoch 00095: LearningRateScheduler setting learning rate to 0.020000000000000004.
[1,1]<stdout>:
[1,1]<stdout>:Epoch 00095: LearningRateScheduler setting learning rate to 0.020000000000000004.
[1,0]<stdout>:195/195 [==============================] - 210s 1s/step - loss: 0.2274 - acc: 0.9656 - val_loss: 0.4506 - val_acc: 0.9025
[1,0]<stdout>:Epoch 96/200
[1,0]<stdout>:
[1,0]<stdout>:Epoch 00096: LearningRateScheduler setting learning rate to 0.020000000000000004.
[1,1]<stdout>:
[1,1]<stdout>:Epoch 00096: LearningRateScheduler setting learning rate to 0.020000000000000004.
[1,0]<stdout>:195/195 [==============================] - 210s 1s/step - loss: 0.2256 - acc: 0.9655 - val_loss: 0.4465 - val_acc: 0.9012
[1,0]<stdout>:Epoch 97/200
[1,0]<stdout>:
[1,0]<stdout>:Epoch 00097: LearningRateScheduler setting learning rate to 0.020000000000000004.
[1,1]<stdout>:
[1,1]<stdout>:Epoch 00097: LearningRateScheduler setting learning rate to 0.020000000000000004.
[1,0]<stdout>:195/195 [==============================] - 210s 1s/step - loss: 0.2223 - acc: 0.9677 - val_loss: 0.4463 - val_acc: 0.9025
[1,0]<stdout>:
[1,0]<stdout>:Epoch 00097: ReduceLROnPlateau reducing learning rate to 0.0019999999552965165.
[1,0]<stdout>:Epoch 98/200
[1,0]<stdout>:
[1,0]<stdout>:Epoch 00098: LearningRateScheduler setting learning rate to 0.020000000000000004.
[1,1]<stdout>:
[1,1]<stdout>:Epoch 00097: ReduceLROnPlateau reducing learning rate to 0.0019999999552965165.
[1,1]<stdout>:
[1,1]<stdout>:Epoch 00098: LearningRateScheduler setting learning rate to 0.020000000000000004.
[1,0]<stdout>:195/195 [==============================] - 210s 1s/step - loss: 0.2205 - acc: 0.9676 - val_loss: 0.4539 - val_acc: 0.9032
[1,0]<stdout>:Epoch 99/200
[1,1]<stdout>:
[1,1]<stdout>:Epoch 00099: LearningRateScheduler setting learning rate to 0.020000000000000004.
[1,0]<stdout>:
[1,0]<stdout>:Epoch 00099: LearningRateScheduler setting learning rate to 0.020000000000000004.
[1,0]<stdout>:195/195 [==============================] - 209s 1s/step - loss: 0.2170 - acc: 0.9686 - val_loss: 0.4484 - val_acc: 0.9036
[1,0]<stdout>:Epoch 100/200
[1,0]<stdout>:
[1,0]<stdout>:Epoch 00100: LearningRateScheduler setting learning rate to 0.020000000000000004.
[1,1]<stdout>:
[1,1]<stdout>:Epoch 00100: LearningRateScheduler setting learning rate to 0.020000000000000004.
[1,0]<stdout>:195/195 [==============================] - 210s 1s/step - loss: 0.2182 - acc: 0.9669 - val_loss: 0.4490 - val_acc: 0.9051
[1,0]<stdout>:Epoch 101/200
[1,0]<stdout>:
[1,0]<stdout>:Epoch 00101: LearningRateScheduler setting learning rate to 0.020000000000000004.
[1,1]<stdout>:
[1,1]<stdout>:Epoch 00101: LearningRateScheduler setting learning rate to 0.020000000000000004.
[1,0]<stdout>:195/195 [==============================] - 210s 1s/step - loss: 0.2141 - acc: 0.9676 - val_loss: 0.4640 - val_acc: 0.9027
[1,1]<stdout>:
[1,1]<stdout>:Epoch 00102: LearningRateScheduler setting learning rate to 0.020000000000000004.
[1,0]<stdout>:Epoch 102/200
[1,0]<stdout>:
[1,0]<stdout>:Epoch 00102: LearningRateScheduler setting learning rate to 0.020000000000000004.
[1,0]<stdout>:195/195 [==============================] - 210s 1s/step - loss: 0.2133 - acc: 0.9692 - val_loss: 0.4450 - val_acc: 0.9050
[1,0]<stdout>:Epoch 103/200
[1,0]<stdout>:
[1,0]<stdout>:Epoch 00103: LearningRateScheduler setting learning rate to 0.020000000000000004.
[1,1]<stdout>:
[1,1]<stdout>:Epoch 00103: LearningRateScheduler setting learning rate to 0.020000000000000004.
[1,0]<stdout>:195/195 [==============================] - 210s 1s/step - loss: 0.2111 - acc: 0.9700 - val_loss: 0.4510 - val_acc: 0.9053
[1,0]<stdout>:Epoch 104/200
[1,0]<stdout>:
[1,0]<stdout>:Epoch 00104: LearningRateScheduler setting learning rate to 0.020000000000000004.
[1,1]<stdout>:
[1,1]<stdout>:Epoch 00104: LearningRateScheduler setting learning rate to 0.020000000000000004.
[1,0]<stdout>:195/195 [==============================] - 210s 1s/step - loss: 0.2109 - acc: 0.9698 - val_loss: 0.4626 - val_acc: 0.9003
[1,0]<stdout>:Epoch 105/200
[1,0]<stdout>:
[1,0]<stdout>:Epoch 00105: LearningRateScheduler setting learning rate to 0.020000000000000004.
[1,1]<stdout>:
[1,1]<stdout>:Epoch 00105: LearningRateScheduler setting learning rate to 0.020000000000000004.
[1,0]<stdout>:195/195 [==============================] - 210s 1s/step - loss: 0.2050 - acc: 0.9715 - val_loss: 0.4545 - val_acc: 0.9026
[1,0]<stdout>:Epoch 106/200
[1,0]<stdout>:
[1,0]<stdout>:Epoch 00106: LearningRateScheduler setting learning rate to 0.020000000000000004.
[1,1]<stdout>:
[1,1]<stdout>:Epoch 00106: LearningRateScheduler setting learning rate to 0.020000000000000004.
[1,0]<stdout>:195/195 [==============================] - 210s 1s/step - loss: 0.2097 - acc: 0.9691 - val_loss: 0.4488 - val_acc: 0.9053
[1,0]<stdout>:Epoch 107/200
[1,0]<stdout>:
[1,0]<stdout>:Epoch 00107: LearningRateScheduler setting learning rate to 0.020000000000000004.
[1,1]<stdout>:
[1,1]<stdout>:Epoch 00107: LearningRateScheduler setting learning rate to 0.020000000000000004.
[1,0]<stdout>:195/195 [==============================] - 210s 1s/step - loss: 0.2024 - acc: 0.9717 - val_loss: 0.4521 - val_acc: 0.9054
[1,0]<stdout>:
[1,0]<stdout>:Epoch 00107: ReduceLROnPlateau reducing learning rate to 0.0019999999552965165.
[1,0]<stdout>:Epoch 108/200
[1,0]<stdout>:
[1,0]<stdout>:Epoch 00108: LearningRateScheduler setting learning rate to 0.020000000000000004.
[1,1]<stdout>:
[1,1]<stdout>:Epoch 00107: ReduceLROnPlateau reducing learning rate to 0.0019999999552965165.
[1,1]<stdout>:
[1,1]<stdout>:Epoch 00108: LearningRateScheduler setting learning rate to 0.020000000000000004.
[1,0]<stdout>:195/195 [==============================] - 210s 1s/step - loss: 0.2056 - acc: 0.9699 - val_loss: 0.4607 - val_acc: 0.9034
[1,0]<stdout>:Epoch 109/200
[1,0]<stdout>:
[1,0]<stdout>:Epoch 00109: LearningRateScheduler setting learning rate to 0.020000000000000004.
[1,1]<stdout>:
[1,1]<stdout>:Epoch 00109: LearningRateScheduler setting learning rate to 0.020000000000000004.
[1,0]<stdout>:195/195 [==============================] - 210s 1s/step - loss: 0.2024 - acc: 0.9706 - val_loss: 0.4686 - val_acc: 0.9012
[1,0]<stdout>:Epoch 110/200
[1,1]<stdout>:
[1,1]<stdout>:Epoch 00110: LearningRateScheduler setting learning rate to 0.020000000000000004.
[1,0]<stdout>:
[1,0]<stdout>:Epoch 00110: LearningRateScheduler setting learning rate to 0.020000000000000004.
[1,0]<stdout>:195/195 [==============================] - 209s 1s/step - loss: 0.2047 - acc: 0.9705 - val_loss: 0.4429 - val_acc: 0.9054
[1,0]<stdout>:Epoch 111/200
[1,0]<stdout>:
[1,0]<stdout>:Epoch 00111: LearningRateScheduler setting learning rate to 0.020000000000000004.
[1,1]<stdout>:
[1,1]<stdout>:Epoch 00111: LearningRateScheduler setting learning rate to 0.020000000000000004.
[1,0]<stdout>:195/195 [==============================] - 208s 1s/step - loss: 0.1987 - acc: 0.9706 - val_loss: 0.4473 - val_acc: 0.9038
[1,0]<stdout>:Epoch 112/200
[1,1]<stdout>:
[1,1]<stdout>:Epoch 00112: LearningRateScheduler setting learning rate to 0.020000000000000004.
[1,0]<stdout>:
[1,0]<stdout>:Epoch 00112: LearningRateScheduler setting learning rate to 0.020000000000000004.
[1,0]<stdout>:195/195 [==============================] - 208s 1s/step - loss: 0.1991 - acc: 0.9715 - val_loss: 0.4481 - val_acc: 0.9043
[1,0]<stdout>:Epoch 113/200
[1,0]<stdout>:
[1,0]<stdout>:Epoch 00113: LearningRateScheduler setting learning rate to 0.020000000000000004.
[1,1]<stdout>:
[1,1]<stdout>:Epoch 00113: LearningRateScheduler setting learning rate to 0.020000000000000004.
[1,0]<stdout>:195/195 [==============================] - 208s 1s/step - loss: 0.1996 - acc: 0.9715 - val_loss: 0.4842 - val_acc: 0.8990
[1,0]<stdout>:Epoch 114/200
[1,0]<stdout>:
[1,0]<stdout>:Epoch 00114: LearningRateScheduler setting learning rate to 0.020000000000000004.
[1,1]<stdout>:
[1,1]<stdout>:Epoch 00114: LearningRateScheduler setting learning rate to 0.020000000000000004.
[1,0]<stdout>:195/195 [==============================] - 208s 1s/step - loss: 0.1959 - acc: 0.9724 - val_loss: 0.4713 - val_acc: 0.8972
[1,0]<stdout>:Epoch 115/200
[1,0]<stdout>:
[1,0]<stdout>:Epoch 00115: LearningRateScheduler setting learning rate to 0.020000000000000004.
[1,1]<stdout>:
[1,1]<stdout>:Epoch 00115: LearningRateScheduler setting learning rate to 0.020000000000000004.
[1,0]<stdout>:195/195 [==============================] - 207s 1s/step - loss: 0.1950 - acc: 0.9733 - val_loss: 0.4613 - val_acc: 0.9044
[1,0]<stdout>:Epoch 116/200
[1,0]<stdout>:
[1,0]<stdout>:Epoch 00116: LearningRateScheduler setting learning rate to 0.020000000000000004.
[1,1]<stdout>:
[1,1]<stdout>:Epoch 00116: LearningRateScheduler setting learning rate to 0.020000000000000004.
[1,0]<stdout>:195/195 [==============================] - 211s 1s/step - loss: 0.1913 - acc: 0.9737 - val_loss: 0.4560 - val_acc: 0.9028
[1,0]<stdout>:Epoch 117/200
[1,0]<stdout>:
[1,0]<stdout>:Epoch 00117: LearningRateScheduler setting learning rate to 0.020000000000000004.
[1,1]<stdout>:
[1,1]<stdout>:Epoch 00117: LearningRateScheduler setting learning rate to 0.020000000000000004.
[1,0]<stdout>:195/195 [==============================] - 210s 1s/step - loss: 0.1908 - acc: 0.9735 - val_loss: 0.4452 - val_acc: 0.9060
[1,0]<stdout>:
[1,0]<stdout>:Epoch 00117: ReduceLROnPlateau reducing learning rate to 0.0019999999552965165.
[1,0]<stdout>:Epoch 118/200
[1,0]<stdout>:
[1,0]<stdout>:Epoch 00118: LearningRateScheduler setting learning rate to 0.020000000000000004.
[1,1]<stdout>:
[1,1]<stdout>:Epoch 00117: ReduceLROnPlateau reducing learning rate to 0.0019999999552965165.
[1,1]<stdout>:
[1,1]<stdout>:Epoch 00118: LearningRateScheduler setting learning rate to 0.020000000000000004.
[1,0]<stdout>:195/195 [==============================] - 208s 1s/step - loss: 0.1948 - acc: 0.9713 - val_loss: 0.4662 - val_acc: 0.9002
[1,0]<stdout>:Epoch 119/200
[1,1]<stdout>:
[1,1]<stdout>:Epoch 00119: LearningRateScheduler setting learning rate to 0.020000000000000004.
[1,0]<stdout>:
[1,0]<stdout>:Epoch 00119: LearningRateScheduler setting learning rate to 0.020000000000000004.
[1,0]<stdout>:195/195 [==============================] - 208s 1s/step - loss: 0.1893 - acc: 0.9737 - val_loss: 0.4820 - val_acc: 0.8969
[1,0]<stdout>:Epoch 120/200
[1,0]<stdout>:
[1,0]<stdout>:Epoch 00120: LearningRateScheduler setting learning rate to 0.020000000000000004.
[1,1]<stdout>:
[1,1]<stdout>:Epoch 00120: LearningRateScheduler setting learning rate to 0.020000000000000004.
[1,0]<stdout>:195/195 [==============================] - 208s 1s/step - loss: 0.1906 - acc: 0.9736 - val_loss: 0.4530 - val_acc: 0.9037
[1,0]<stdout>:Epoch 121/200
[1,0]<stdout>:
[1,0]<stdout>:Epoch 00121: LearningRateScheduler setting learning rate to 0.020000000000000004.
[1,1]<stdout>:
[1,1]<stdout>:Epoch 00121: LearningRateScheduler setting learning rate to 0.020000000000000004.
[1,0]<stdout>:195/195 [==============================] - 208s 1s/step - loss: 0.1884 - acc: 0.9737 - val_loss: 0.4604 - val_acc: 0.9034
[1,0]<stdout>:Epoch 122/200
[1,0]<stdout>:
[1,0]<stdout>:Epoch 00122: LearningRateScheduler setting learning rate to 0.002.
[1,1]<stdout>:
[1,1]<stdout>:Epoch 00122: LearningRateScheduler setting learning rate to 0.002.
[1,0]<stdout>:195/195 [==============================] - 208s 1s/step - loss: 0.1878 - acc: 0.9722 - val_loss: 0.4521 - val_acc: 0.9054
[1,0]<stdout>:Epoch 123/200
[1,1]<stdout>:
[1,1]<stdout>:Epoch 00123: LearningRateScheduler setting learning rate to 0.002.
[1,0]<stdout>:
[1,0]<stdout>:Epoch 00123: LearningRateScheduler setting learning rate to 0.002.
[1,0]<stdout>:195/195 [==============================] - 208s 1s/step - loss: 0.1813 - acc: 0.9768 - val_loss: 0.4491 - val_acc: 0.9064
[1,0]<stdout>:Epoch 124/200
[1,0]<stdout>:
[1,0]<stdout>:Epoch 00124: LearningRateScheduler setting learning rate to 0.002.
[1,1]<stdout>:
[1,1]<stdout>:Epoch 00124: LearningRateScheduler setting learning rate to 0.002.
[1,0]<stdout>:195/195 [==============================] - 208s 1s/step - loss: 0.1802 - acc: 0.9769 - val_loss: 0.4502 - val_acc: 0.9067
[1,0]<stdout>:Epoch 125/200
[1,0]<stdout>:
[1,0]<stdout>:Epoch 00125: LearningRateScheduler setting learning rate to 0.002.
[1,1]<stdout>:
[1,1]<stdout>:Epoch 00125: LearningRateScheduler setting learning rate to 0.002.
[1,0]<stdout>:195/195 [==============================] - 207s 1s/step - loss: 0.1791 - acc: 0.9779 - val_loss: 0.4460 - val_acc: 0.9074
[1,0]<stdout>:Epoch 126/200
[1,0]<stdout>:
[1,0]<stdout>:Epoch 00126: LearningRateScheduler setting learning rate to 0.002.
[1,1]<stdout>:
[1,1]<stdout>:Epoch 00126: LearningRateScheduler setting learning rate to 0.002.
[1,0]<stdout>:195/195 [==============================] - 208s 1s/step - loss: 0.1798 - acc: 0.9777 - val_loss: 0.4480 - val_acc: 0.9071
[1,0]<stdout>:Epoch 127/200
[1,0]<stdout>:
[1,0]<stdout>:Epoch 00127: LearningRateScheduler setting learning rate to 0.002.
[1,1]<stdout>:
[1,1]<stdout>:Epoch 00127: LearningRateScheduler setting learning rate to 0.002.
[1,0]<stdout>:195/195 [==============================] - 220s 1s/step - loss: 0.1809 - acc: 0.9761 - val_loss: 0.4490 - val_acc: 0.9067
[1,0]<stdout>:
[1,0]<stdout>:Epoch 00127: ReduceLROnPlateau reducing learning rate to 0.00020000000949949026.
[1,0]<stdout>:Epoch 128/200
[1,1]<stdout>:
[1,1]<stdout>:Epoch 00127: ReduceLROnPlateau reducing learning rate to 0.00020000000949949026.
[1,0]<stdout>:
[1,0]<stdout>:Epoch 00128: LearningRateScheduler setting learning rate to 0.002.
[1,1]<stdout>:
[1,1]<stdout>:Epoch 00128: LearningRateScheduler setting learning rate to 0.002.
[1,0]<stdout>:195/195 [==============================] - 208s 1s/step - loss: 0.1803 - acc: 0.9770 - val_loss: 0.4458 - val_acc: 0.9078
[1,0]<stdout>:Epoch 129/200
[1,0]<stdout>:
[1,0]<stdout>:Epoch 00129: LearningRateScheduler setting learning rate to 0.002.
[1,1]<stdout>:
[1,1]<stdout>:Epoch 00129: LearningRateScheduler setting learning rate to 0.002.
[1,0]<stdout>:195/195 [==============================] - 208s 1s/step - loss: 0.1783 - acc: 0.9771 - val_loss: 0.4467 - val_acc: 0.9080
[1,0]<stdout>:Epoch 130/200
[1,0]<stdout>:
[1,0]<stdout>:Epoch 00130: LearningRateScheduler setting learning rate to 0.002.
[1,1]<stdout>:
[1,1]<stdout>:Epoch 00130: LearningRateScheduler setting learning rate to 0.002.
[1,0]<stdout>:195/195 [==============================] - 208s 1s/step - loss: 0.1796 - acc: 0.9776 - val_loss: 0.4460 - val_acc: 0.9082
[1,0]<stdout>:Epoch 131/200
[1,1]<stdout>:
[1,1]<stdout>:Epoch 00131: LearningRateScheduler setting learning rate to 0.002.
[1,0]<stdout>:
[1,0]<stdout>:Epoch 00131: LearningRateScheduler setting learning rate to 0.002.
[1,0]<stdout>:195/195 [==============================] - 208s 1s/step - loss: 0.1783 - acc: 0.9777 - val_loss: 0.4461 - val_acc: 0.9081
[1,0]<stdout>:Epoch 132/200
[1,0]<stdout>:
[1,0]<stdout>:Epoch 00132: LearningRateScheduler setting learning rate to 0.002.
[1,1]<stdout>:
[1,1]<stdout>:Epoch 00132: LearningRateScheduler setting learning rate to 0.002.
[1,0]<stdout>:195/195 [==============================] - 208s 1s/step - loss: 0.1801 - acc: 0.9768 - val_loss: 0.4474 - val_acc: 0.9068
[1,0]<stdout>:Epoch 133/200
[1,0]<stdout>:
[1,0]<stdout>:Epoch 00133: LearningRateScheduler setting learning rate to 0.002.
[1,1]<stdout>:
[1,1]<stdout>:Epoch 00133: LearningRateScheduler setting learning rate to 0.002.
[1,0]<stdout>:195/195 [==============================] - 208s 1s/step - loss: 0.1768 - acc: 0.9782 - val_loss: 0.4473 - val_acc: 0.9081
[1,0]<stdout>:Epoch 134/200
[1,0]<stdout>:
[1,0]<stdout>:Epoch 00134: LearningRateScheduler setting learning rate to 0.002.
[1,1]<stdout>:
[1,1]<stdout>:Epoch 00134: LearningRateScheduler setting learning rate to 0.002.
[1,0]<stdout>:195/195 [==============================] - 217s 1s/step - loss: 0.1783 - acc: 0.9771 - val_loss: 0.4465 - val_acc: 0.9075
[1,0]<stdout>:Epoch 135/200
[1,0]<stdout>:
[1,0]<stdout>:Epoch 00135: LearningRateScheduler setting learning rate to 0.002.
[1,1]<stdout>:
[1,1]<stdout>:Epoch 00135: LearningRateScheduler setting learning rate to 0.002.
[1,0]<stdout>:195/195 [==============================] - 249s 1s/step - loss: 0.1781 - acc: 0.9774 - val_loss: 0.4485 - val_acc: 0.9077
[1,0]<stdout>:Epoch 136/200
[1,1]<stdout>:
[1,1]<stdout>:Epoch 00136: LearningRateScheduler setting learning rate to 0.002.
[1,0]<stdout>:
[1,0]<stdout>:Epoch 00136: LearningRateScheduler setting learning rate to 0.002.
195/195 [==============================] - 242s 1s/step - loss: 0.1768 - acc: 0.9782 - val_loss: 0.4466 - val_acc: 0.9082
[1,0]<stdout>:Epoch 137/200
[1,0]<stdout>:
[1,0]<stdout>:Epoch 00137: LearningRateScheduler setting learning rate to 0.002.
[1,1]<stdout>:
[1,1]<stdout>:Epoch 00137: LearningRateScheduler setting learning rate to 0.002.
[1,0]<stdout>:195/195 [==============================] - 262s 1s/step - loss: 0.1793 - acc: 0.9760 - val_loss: 0.4481 - val_acc: 0.9079
[1,0]<stdout>:
[1,0]<stdout>:Epoch 00137: ReduceLROnPlateau reducing learning rate to 0.00020000000949949026.
[1,0]<stdout>:Epoch 138/200
[1,1]<stdout>:
[1,1]<stdout>:Epoch 00137: ReduceLROnPlateau reducing learning rate to 0.00020000000949949026.
[1,0]<stdout>:
[1,0]<stdout>:Epoch 00138: LearningRateScheduler setting learning rate to 0.002.
[1,1]<stdout>:
[1,1]<stdout>:Epoch 00138: LearningRateScheduler setting learning rate to 0.002.
[1,0]<stdout>:195/195 [==============================] - 211s 1s/step - loss: 0.1792 - acc: 0.9771 - val_loss: 0.4467 - val_acc: 0.9083
[1,0]<stdout>:Epoch 139/200
[1,0]<stdout>:
[1,0]<stdout>:Epoch 00139: LearningRateScheduler setting learning rate to 0.002.
[1,1]<stdout>:
[1,1]<stdout>:Epoch 00139: LearningRateScheduler setting learning rate to 0.002.
[1,0]<stdout>:195/195 [==============================] - 210s 1s/step - loss: 0.1791 - acc: 0.9771 - val_loss: 0.4474 - val_acc: 0.9087
[1,0]<stdout>:Epoch 140/200
[1,0]<stdout>:
[1,0]<stdout>:Epoch 00140: LearningRateScheduler setting learning rate to 0.002.
[1,1]<stdout>:
[1,1]<stdout>:Epoch 00140: LearningRateScheduler setting learning rate to 0.002.
[1,0]<stdout>:195/195 [==============================] - 210s 1s/step - loss: 0.1795 - acc: 0.9763 - val_loss: 0.4481 - val_acc: 0.9084
[1,0]<stdout>:Epoch 141/200
[1,0]<stdout>:
[1,0]<stdout>:Epoch 00141: LearningRateScheduler setting learning rate to 0.002.
[1,1]<stdout>:
[1,1]<stdout>:Epoch 00141: LearningRateScheduler setting learning rate to 0.002.
[1,0]<stdout>:195/195 [==============================] - 210s 1s/step - loss: 0.1777 - acc: 0.9778 - val_loss: 0.4462 - val_acc: 0.9086
[1,1]<stdout>:
[1,1]<stdout>:Epoch 00142: LearningRateScheduler setting learning rate to 0.002.
[1,0]<stdout>:Epoch 142/200
[1,0]<stdout>:
[1,0]<stdout>:Epoch 00142: LearningRateScheduler setting learning rate to 0.002.
[1,0]<stdout>:195/195 [==============================] - 210s 1s/step - loss: 0.1810 - acc: 0.9760 - val_loss: 0.4485 - val_acc: 0.9081
[1,0]<stdout>:Epoch 143/200
[1,0]<stdout>:
[1,0]<stdout>:Epoch 00143: LearningRateScheduler setting learning rate to 0.002.
[1,1]<stdout>:
[1,1]<stdout>:Epoch 00143: LearningRateScheduler setting learning rate to 0.002.
[1,0]<stdout>:195/195 [==============================] - 210s 1s/step - loss: 0.1764 - acc: 0.9782 - val_loss: 0.4473 - val_acc: 0.9086
[1,0]<stdout>:Epoch 144/200
[1,0]<stdout>:
[1,0]<stdout>:Epoch 00144: LearningRateScheduler setting learning rate to 0.002.
[1,1]<stdout>:
[1,1]<stdout>:Epoch 00144: LearningRateScheduler setting learning rate to 0.002.
[1,0]<stdout>:195/195 [==============================] - 205s 1s/step - loss: 0.1786 - acc: 0.9767 - val_loss: 0.4495 - val_acc: 0.9089
[1,0]<stdout>:Epoch 145/200
[1,0]<stdout>:
[1,0]<stdout>:Epoch 00145: LearningRateScheduler setting learning rate to 0.002.
[1,1]<stdout>:
[1,1]<stdout>:Epoch 00145: LearningRateScheduler setting learning rate to 0.002.
[1,0]<stdout>:195/195 [==============================] - 205s 1s/step - loss: 0.1808 - acc: 0.9768 - val_loss: 0.4489 - val_acc: 0.9083
[1,0]<stdout>:Epoch 146/200
[1,0]<stdout>:
[1,0]<stdout>:Epoch 00146: LearningRateScheduler setting learning rate to 0.002.
[1,1]<stdout>:
[1,1]<stdout>:Epoch 00146: LearningRateScheduler setting learning rate to 0.002.
[1,0]<stdout>:195/195 [==============================] - 206s 1s/step - loss: 0.1767 - acc: 0.9782 - val_loss: 0.4480 - val_acc: 0.9082
[1,0]<stdout>:Epoch 147/200
[1,0]<stdout>:
[1,0]<stdout>:Epoch 00147: LearningRateScheduler setting learning rate to 0.002.
[1,1]<stdout>:
[1,1]<stdout>:Epoch 00147: LearningRateScheduler setting learning rate to 0.002.
[1,0]<stdout>:195/195 [==============================] - 205s 1s/step - loss: 0.1757 - acc: 0.9778 - val_loss: 0.4477 - val_acc: 0.9082
[1,0]<stdout>:
[1,0]<stdout>:Epoch 00147: ReduceLROnPlateau reducing learning rate to 0.00020000000949949026.[1,0]<stdout>:
[1,0]<stdout>:Epoch 148/200
[1,0]<stdout>:
[1,0]<stdout>:Epoch 00148: LearningRateScheduler setting learning rate to 0.002.
[1,1]<stdout>:
[1,1]<stdout>:Epoch 00147: ReduceLROnPlateau reducing learning rate to 0.00020000000949949026.
[1,1]<stdout>:
[1,1]<stdout>:Epoch 00148: LearningRateScheduler setting learning rate to 0.002.
[1,0]<stdout>:195/195 [==============================] - 205s 1s/step - loss: 0.1792 - acc: 0.9756 - val_loss: 0.4471 - val_acc: 0.9081
[1,0]<stdout>:Epoch 149/200
[1,0]<stdout>:
[1,0]<stdout>:Epoch 00149: LearningRateScheduler setting learning rate to 0.002.
[1,1]<stdout>:
[1,1]<stdout>:Epoch 00149: LearningRateScheduler setting learning rate to 0.002.
[1,0]<stdout>:195/195 [==============================] - 208s 1s/step - loss: 0.1759 - acc: 0.9792 - val_loss: 0.4460 - val_acc: 0.9083
[1,0]<stdout>:Epoch 150/200
[1,1]<stdout>:
[1,1]<stdout>:Epoch 00150: LearningRateScheduler setting learning rate to 0.002.
[1,0]<stdout>:
[1,0]<stdout>:Epoch 00150: LearningRateScheduler setting learning rate to 0.002.
[1,0]<stdout>:195/195 [==============================] - 211s 1s/step - loss: 0.1760 - acc: 0.9782 - val_loss: 0.4468 - val_acc: 0.9081
[1,0]<stdout>:Epoch 151/200
[1,0]<stdout>:
[1,0]<stdout>:Epoch 00151: LearningRateScheduler setting learning rate to 0.002.
[1,1]<stdout>:
[1,1]<stdout>:Epoch 00151: LearningRateScheduler setting learning rate to 0.002.
[1,0]<stdout>:195/195 [==============================] - 211s 1s/step - loss: 0.1774 - acc: 0.9770 - val_loss: 0.4456 - val_acc: 0.9086
[1,0]<stdout>:Epoch 152/200
[1,0]<stdout>:
[1,0]<stdout>:Epoch 00152: LearningRateScheduler setting learning rate to 0.002.
[1,1]<stdout>:
[1,1]<stdout>:Epoch 00152: LearningRateScheduler setting learning rate to 0.002.
[1,0]<stdout>:195/195 [==============================] - 211s 1s/step - loss: 0.1763 - acc: 0.9781 - val_loss: 0.4481 - val_acc: 0.9082
[1,0]<stdout>:Epoch 153/200
[1,0]<stdout>:
[1,0]<stdout>:Epoch 00153: LearningRateScheduler setting learning rate to 0.002.
[1,1]<stdout>:
[1,1]<stdout>:Epoch 00153: LearningRateScheduler setting learning rate to 0.002.
[1,0]<stdout>:195/195 [==============================] - 210s 1s/step - loss: 0.1754 - acc: 0.9776 - val_loss: 0.4485 - val_acc: 0.9076
[1,0]<stdout>:Epoch 154/200
[1,0]<stdout>:
[1,0]<stdout>:Epoch 00154: LearningRateScheduler setting learning rate to 0.002.
[1,1]<stdout>:
[1,1]<stdout>:Epoch 00154: LearningRateScheduler setting learning rate to 0.002.
[1,0]<stdout>:195/195 [==============================] - 211s 1s/step - loss: 0.1786 - acc: 0.9766 - val_loss: 0.4460 - val_acc: 0.9081
[1,0]<stdout>:Epoch 155/200
[1,0]<stdout>:
[1,0]<stdout>:Epoch 00155: LearningRateScheduler setting learning rate to 0.002.
[1,1]<stdout>:
[1,1]<stdout>:Epoch 00155: LearningRateScheduler setting learning rate to 0.002.
[1,0]<stdout>:195/195 [==============================] - 211s 1s/step - loss: 0.1765 - acc: 0.9776 - val_loss: 0.4459 - val_acc: 0.9091
[1,0]<stdout>:Epoch 156/200
[1,0]<stdout>:
[1,0]<stdout>:Epoch 00156: LearningRateScheduler setting learning rate to 0.002.
[1,1]<stdout>:
[1,1]<stdout>:Epoch 00156: LearningRateScheduler setting learning rate to 0.002.
[1,0]<stdout>:195/195 [==============================] - 211s 1s/step - loss: 0.1738 - acc: 0.9799 - val_loss: 0.4472 - val_acc: 0.9089
[1,0]<stdout>:Epoch 157/200
[1,0]<stdout>:
[1,0]<stdout>:Epoch 00157: LearningRateScheduler setting learning rate to 0.002.
[1,1]<stdout>:
[1,1]<stdout>:Epoch 00157: LearningRateScheduler setting learning rate to 0.002.
[1,0]<stdout>:195/195 [==============================] - 211s 1s/step - loss: 0.1734 - acc: 0.9793 - val_loss: 0.4466 - val_acc: 0.9089
[1,0]<stdout>:
[1,0]<stdout>:Epoch 00157: ReduceLROnPlateau reducing learning rate to 0.00020000000949949026.
[1,0]<stdout>:Epoch 158/200
[1,0]<stdout>:
[1,0]<stdout>:Epoch 00158: LearningRateScheduler setting learning rate to 0.002.
[1,1]<stdout>:
[1,1]<stdout>:Epoch 00157: ReduceLROnPlateau reducing learning rate to 0.00020000000949949026.
[1,1]<stdout>:
[1,1]<stdout>:Epoch 00158: LearningRateScheduler setting learning rate to 0.002.
[1,0]<stdout>:195/195 [==============================] - 210s 1s/step - loss: 0.1741 - acc: 0.9788 - val_loss: 0.4473 - val_acc: 0.9084
[1,0]<stdout>:Epoch 159/200
[1,0]<stdout>:
[1,0]<stdout>:Epoch 00159: LearningRateScheduler setting learning rate to 0.002.
[1,1]<stdout>:
[1,1]<stdout>:Epoch 00159: LearningRateScheduler setting learning rate to 0.002.
[1,0]<stdout>:195/195 [==============================] - 210s 1s/step - loss: 0.1758 - acc: 0.9777 - val_loss: 0.4490 - val_acc: 0.9084
[1,0]<stdout>:Epoch 160/200
[1,1]<stdout>:
[1,1]<stdout>:Epoch 00160: LearningRateScheduler setting learning rate to 0.002.
[1,0]<stdout>:
[1,0]<stdout>:Epoch 00160: LearningRateScheduler setting learning rate to 0.002.
[1,0]<stdout>:195/195 [==============================] - 212s 1s/step - loss: 0.1733 - acc: 0.9782 - val_loss: 0.4481 - val_acc: 0.9078
[1,0]<stdout>:Epoch 161/200
[1,1]<stdout>:
[1,1]<stdout>:Epoch 00161: LearningRateScheduler setting learning rate to 0.002.
[1,0]<stdout>:
[1,0]<stdout>:Epoch 00161: LearningRateScheduler setting learning rate to 0.002.
[1,0]<stdout>:195/195 [==============================] - 210s 1s/step - loss: 0.1756 - acc: 0.9777 - val_loss: 0.4469 - val_acc: 0.9079
[1,0]<stdout>:Epoch 162/200
[1,0]<stdout>:
[1,0]<stdout>:Epoch 00162: LearningRateScheduler setting learning rate to 0.0002.
[1,1]<stdout>:
[1,1]<stdout>:Epoch 00162: LearningRateScheduler setting learning rate to 0.0002.
[1,0]<stdout>:195/195 [==============================] - 210s 1s/step - loss: 0.1716 - acc: 0.9803 - val_loss: 0.4473 - val_acc: 0.9077
[1,0]<stdout>:Epoch 163/200
[1,0]<stdout>:
[1,0]<stdout>:Epoch 00163: LearningRateScheduler setting learning rate to 0.0002.
[1,1]<stdout>:
[1,1]<stdout>:Epoch 00163: LearningRateScheduler setting learning rate to 0.0002.
[1,0]<stdout>:195/195 [==============================] - 210s 1s/step - loss: 0.1738 - acc: 0.9794 - val_loss: 0.4477 - val_acc: 0.9075
[1,0]<stdout>:Epoch 164/200
[1,0]<stdout>:
[1,0]<stdout>:Epoch 00164: LearningRateScheduler setting learning rate to 0.0002.
[1,1]<stdout>:
[1,1]<stdout>:Epoch 00164: LearningRateScheduler setting learning rate to 0.0002.
[1,0]<stdout>:195/195 [==============================] - 210s 1s/step - loss: 0.1727 - acc: 0.9784 - val_loss: 0.4482 - val_acc: 0.9077
[1,0]<stdout>:Epoch 165/200
[1,1]<stdout>:
[1,1]<stdout>:Epoch 00165: LearningRateScheduler setting learning rate to 0.0002.
[1,0]<stdout>:
[1,0]<stdout>:Epoch 00165: LearningRateScheduler setting learning rate to 0.0002.
[1,0]<stdout>:195/195 [==============================] - 209s 1s/step - loss: 0.1770 - acc: 0.9771 - val_loss: 0.4465 - val_acc: 0.9080
[1,0]<stdout>:Epoch 166/200
[1,0]<stdout>:
[1,0]<stdout>:Epoch 00166: LearningRateScheduler setting learning rate to 0.0002.
[1,1]<stdout>:
[1,1]<stdout>:Epoch 00166: LearningRateScheduler setting learning rate to 0.0002.
[1,0]<stdout>:195/195 [==============================] - 210s 1s/step - loss: 0.1713 - acc: 0.9797 - val_loss: 0.4479 - val_acc: 0.9075
[1,0]<stdout>:Epoch 167/200
[1,0]<stdout>:
[1,0]<stdout>:Epoch 00167: LearningRateScheduler setting learning rate to 0.0002.
[1,1]<stdout>:
[1,1]<stdout>:Epoch 00167: LearningRateScheduler setting learning rate to 0.0002.
[1,0]<stdout>:195/195 [==============================] - 210s 1s/step - loss: 0.1747 - acc: 0.9788 - val_loss: 0.4476 - val_acc: 0.9078
[1,0]<stdout>:
[1,0]<stdout>:Epoch 00167: ReduceLROnPlateau reducing learning rate to 1.9999999494757503e-05.
[1,0]<stdout>:Epoch 168/200
[1,1]<stdout>:
[1,1]<stdout>:Epoch 00167: ReduceLROnPlateau reducing learning rate to 1.9999999494757503e-05.
[1,0]<stdout>:
[1,0]<stdout>:Epoch 00168: LearningRateScheduler setting learning rate to 0.0002.
[1,1]<stdout>:
[1,1]<stdout>:Epoch 00168: LearningRateScheduler setting learning rate to 0.0002.
[1,0]<stdout>:195/195 [==============================] - 210s 1s/step - loss: 0.1759 - acc: 0.9777 - val_loss: 0.4470 - val_acc: 0.9081
[1,0]<stdout>:Epoch 169/200
[1,1]<stdout>:
[1,1]<stdout>:Epoch 00169: LearningRateScheduler setting learning rate to 0.0002.
[1,0]<stdout>:
[1,0]<stdout>:Epoch 00169: LearningRateScheduler setting learning rate to 0.0002.
[1,0]<stdout>:195/195 [==============================] - 210s 1s/step - loss: 0.1748 - acc: 0.9783 - val_loss: 0.4465 - val_acc: 0.9090
[1,0]<stdout>:Epoch 170/200
[1,1]<stdout>:
[1,1]<stdout>:Epoch 00170: LearningRateScheduler setting learning rate to 0.0002.
[1,0]<stdout>:
[1,0]<stdout>:Epoch 00170: LearningRateScheduler setting learning rate to 0.0002.
[1,0]<stdout>:195/195 [==============================] - 210s 1s/step - loss: 0.1754 - acc: 0.9774 - val_loss: 0.4473 - val_acc: 0.9085
[1,0]<stdout>:Epoch 171/200
[1,0]<stdout>:
[1,0]<stdout>:Epoch 00171: LearningRateScheduler setting learning rate to 0.0002.
[1,1]<stdout>:
[1,1]<stdout>:Epoch 00171: LearningRateScheduler setting learning rate to 0.0002.
[1,0]<stdout>:195/195 [==============================] - 210s 1s/step - loss: 0.1716 - acc: 0.9802 - val_loss: 0.4478 - val_acc: 0.9079
[1,0]<stdout>:Epoch 172/200
[1,1]<stdout>:
[1,1]<stdout>:Epoch 00172: LearningRateScheduler setting learning rate to 0.0002.
[1,0]<stdout>:
[1,0]<stdout>:Epoch 00172: LearningRateScheduler setting learning rate to 0.0002.
[1,0]<stdout>:195/195 [==============================] - 210s 1s/step - loss: 0.1731 - acc: 0.9793 - val_loss: 0.4473 - val_acc: 0.9085
[1,0]<stdout>:Epoch 173/200
[1,1]<stdout>:
[1,1]<stdout>:Epoch 00173: LearningRateScheduler setting learning rate to 0.0002.
[1,0]<stdout>:
[1,0]<stdout>:Epoch 00173: LearningRateScheduler setting learning rate to 0.0002.
[1,0]<stdout>:195/195 [==============================] - 209s 1s/step - loss: 0.1741 - acc: 0.9784 - val_loss: 0.4476 - val_acc: 0.9083
[1,0]<stdout>:Epoch 174/200
[1,0]<stdout>:
[1,0]<stdout>:Epoch 00174: LearningRateScheduler setting learning rate to 0.0002.
[1,1]<stdout>:
[1,1]<stdout>:Epoch 00174: LearningRateScheduler setting learning rate to 0.0002.
[1,0]<stdout>:195/195 [==============================] - 210s 1s/step - loss: 0.1814 - acc: 0.9762 - val_loss: 0.4479 - val_acc: 0.9086
[1,0]<stdout>:Epoch 175/200
[1,0]<stdout>:
[1,0]<stdout>:Epoch 00175: LearningRateScheduler setting learning rate to 0.0002.
[1,1]<stdout>:
[1,1]<stdout>:Epoch 00175: LearningRateScheduler setting learning rate to 0.0002.
[1,0]<stdout>:195/195 [==============================] - 210s 1s/step - loss: 0.1761 - acc: 0.9791 - val_loss: 0.4471 - val_acc: 0.9085
[1,0]<stdout>:Epoch 176/200
[1,0]<stdout>:
[1,0]<stdout>:Epoch 00176: LearningRateScheduler setting learning rate to 0.0002.
[1,1]<stdout>:
[1,1]<stdout>:Epoch 00176: LearningRateScheduler setting learning rate to 0.0002.
[1,0]<stdout>:195/195 [==============================] - 210s 1s/step - loss: 0.1723 - acc: 0.9792 - val_loss: 0.4485 - val_acc: 0.9084
[1,0]<stdout>:Epoch 177/200
[1,0]<stdout>:
[1,0]<stdout>:Epoch 00177: LearningRateScheduler setting learning rate to 0.0002.
[1,1]<stdout>:
[1,1]<stdout>:Epoch 00177: LearningRateScheduler setting learning rate to 0.0002.
[1,0]<stdout>:195/195 [==============================] - 210s 1s/step - loss: 0.1749 - acc: 0.9782 - val_loss: 0.4476 - val_acc: 0.9083
[1,0]<stdout>:
[1,0]<stdout>:Epoch 00177: ReduceLROnPlateau reducing learning rate to 1.9999999494757503e-05.
[1,0]<stdout>:Epoch 178/200
[1,0]<stdout>:
[1,0]<stdout>:Epoch 00178: LearningRateScheduler setting learning rate to 0.0002.
[1,1]<stdout>:
[1,1]<stdout>:Epoch 00177: ReduceLROnPlateau reducing learning rate to 1.9999999494757503e-05.
[1,1]<stdout>:
[1,1]<stdout>:Epoch 00178: LearningRateScheduler setting learning rate to 0.0002.
[1,0]<stdout>:195/195 [==============================] - 207s 1s/step - loss: 0.1743 - acc: 0.9777 - val_loss: 0.4476 - val_acc: 0.9085
[1,0]<stdout>:Epoch 179/200
[1,0]<stdout>:
[1,0]<stdout>:Epoch 00179: LearningRateScheduler setting learning rate to 0.0002.
[1,1]<stdout>:
[1,1]<stdout>:Epoch 00179: LearningRateScheduler setting learning rate to 0.0002.
[1,0]<stdout>:195/195 [==============================] - 206s 1s/step - loss: 0.1744 - acc: 0.9788 - val_loss: 0.4471 - val_acc: 0.9084
[1,0]<stdout>:Epoch 180/200
[1,0]<stdout>:
[1,0]<stdout>:Epoch 00180: LearningRateScheduler setting learning rate to 0.0002.
[1,1]<stdout>:
[1,1]<stdout>:Epoch 00180: LearningRateScheduler setting learning rate to 0.0002.
[1,0]<stdout>:195/195 [==============================] - 207s 1s/step - loss: 0.1749 - acc: 0.9780 - val_loss: 0.4485 - val_acc: 0.9080
[1,0]<stdout>:Epoch 181/200
[1,0]<stdout>:
[1,0]<stdout>:Epoch 00181: LearningRateScheduler setting learning rate to 0.0002.
[1,1]<stdout>:
[1,1]<stdout>:Epoch 00181: LearningRateScheduler setting learning rate to 0.0002.
[1,0]<stdout>:195/195 [==============================] - 206s 1s/step - loss: 0.1757 - acc: 0.9785 - val_loss: 0.4472 - val_acc: 0.9083
[1,0]<stdout>:Epoch 182/200
[1,0]<stdout>:
[1,0]<stdout>:Epoch 00182: LearningRateScheduler setting learning rate to 0.0001.
[1,1]<stdout>:
[1,1]<stdout>:Epoch 00182: LearningRateScheduler setting learning rate to 0.0001.
[1,0]<stdout>:195/195 [==============================] - 206s 1s/step - loss: 0.1725 - acc: 0.9791 - val_loss: 0.4472 - val_acc: 0.9084
[1,0]<stdout>:Epoch 183/200
[1,0]<stdout>:
[1,0]<stdout>:Epoch 00183: LearningRateScheduler setting learning rate to 0.0001.
[1,1]<stdout>:
[1,1]<stdout>:Epoch 00183: LearningRateScheduler setting learning rate to 0.0001.
[1,0]<stdout>:195/195 [==============================] - 206s 1s/step - loss: 0.1762 - acc: 0.9779 - val_loss: 0.4468 - val_acc: 0.9083
[1,0]<stdout>:Epoch 184/200
[1,0]<stdout>:
[1,0]<stdout>:Epoch 00184: LearningRateScheduler setting learning rate to 0.0001.
[1,1]<stdout>:
[1,1]<stdout>:Epoch 00184: LearningRateScheduler setting learning rate to 0.0001.
[1,0]<stdout>:195/195 [==============================] - 206s 1s/step - loss: 0.1761 - acc: 0.9774 - val_loss: 0.4481 - val_acc: 0.9082
[1,0]<stdout>:Epoch 185/200
[1,1]<stdout>:
[1,1]<stdout>:Epoch 00185: LearningRateScheduler setting learning rate to 0.0001.
[1,0]<stdout>:
[1,0]<stdout>:Epoch 00185: LearningRateScheduler setting learning rate to 0.0001.
[1,0]<stdout>:195/195 [==============================] - 206s 1s/step - loss: 0.1743 - acc: 0.9787 - val_loss: 0.4474 - val_acc: 0.9084
[1,0]<stdout>:Epoch 186/200
[1,0]<stdout>:
[1,0]<stdout>:Epoch 00186: LearningRateScheduler setting learning rate to 0.0001.
[1,1]<stdout>:
[1,1]<stdout>:Epoch 00186: LearningRateScheduler setting learning rate to 0.0001.
[1,0]<stdout>:195/195 [==============================] - 207s 1s/step - loss: 0.1730 - acc: 0.9794 - val_loss: 0.4472 - val_acc: 0.9078
[1,0]<stdout>:Epoch 187/200
[1,0]<stdout>:
[1,0]<stdout>:Epoch 00187: LearningRateScheduler setting learning rate to 0.0001.[1,0]<stdout>:
[1,1]<stdout>:
[1,1]<stdout>:Epoch 00187: LearningRateScheduler setting learning rate to 0.0001.
[1,0]<stdout>:195/195 [==============================] - 205s 1s/step - loss: 0.1759 - acc: 0.9780 - val_loss: 0.4472 - val_acc: 0.9081
[1,0]<stdout>:
[1,0]<stdout>:Epoch 00187: ReduceLROnPlateau reducing learning rate to 9.999999747378752e-06.
[1,0]<stdout>:Epoch 188/200
[1,0]<stdout>:
[1,0]<stdout>:Epoch 00188: LearningRateScheduler setting learning rate to 0.0001.
[1,1]<stdout>:
[1,1]<stdout>:Epoch 00187: ReduceLROnPlateau reducing learning rate to 9.999999747378752e-06.
[1,1]<stdout>:
[1,1]<stdout>:Epoch 00188: LearningRateScheduler setting learning rate to 0.0001.
[1,0]<stdout>:195/195 [==============================] - 206s 1s/step - loss: 0.1733 - acc: 0.9795 - val_loss: 0.4473 - val_acc: 0.9077
[1,0]<stdout>:Epoch 189/200
[1,0]<stdout>:
[1,0]<stdout>:Epoch 00189: LearningRateScheduler setting learning rate to 0.0001.
[1,1]<stdout>:
[1,1]<stdout>:Epoch 00189: LearningRateScheduler setting learning rate to 0.0001.
[1,0]<stdout>:195/195 [==============================] - 205s 1s/step - loss: 0.1739 - acc: 0.9784 - val_loss: 0.4477 - val_acc: 0.9082
[1,0]<stdout>:Epoch 190/200
[1,0]<stdout>:
[1,0]<stdout>:Epoch 00190: LearningRateScheduler setting learning rate to 0.0001.
[1,1]<stdout>:
[1,1]<stdout>:Epoch 00190: LearningRateScheduler setting learning rate to 0.0001.
[1,0]<stdout>:195/195 [==============================] - 206s 1s/step - loss: 0.1731 - acc: 0.9789 - val_loss: 0.4485 - val_acc: 0.9083
[1,0]<stdout>:Epoch 191/200
[1,0]<stdout>:
[1,0]<stdout>:Epoch 00191: LearningRateScheduler setting learning rate to 0.0001.
[1,1]<stdout>:
[1,1]<stdout>:Epoch 00191: LearningRateScheduler setting learning rate to 0.0001.
[1,0]<stdout>:195/195 [==============================] - 206s 1s/step - loss: 0.1778 - acc: 0.9771 - val_loss: 0.4471 - val_acc: 0.9082
[1,0]<stdout>:Epoch 192/200
[1,0]<stdout>:
[1,0]<stdout>:Epoch 00192: LearningRateScheduler setting learning rate to 0.0001.
[1,1]<stdout>:
[1,1]<stdout>:Epoch 00192: LearningRateScheduler setting learning rate to 0.0001.
[1,0]<stdout>:195/195 [==============================] - 206s 1s/step - loss: 0.1724 - acc: 0.9785 - val_loss: 0.4474 - val_acc: 0.9083
[1,1]<stdout>:
[1,1]<stdout>:Epoch 00193: LearningRateScheduler setting learning rate to 0.0001.
[1,0]<stdout>:Epoch 193/200
[1,0]<stdout>:
[1,0]<stdout>:Epoch 00193: LearningRateScheduler setting learning rate to 0.0001.
[1,0]<stdout>:195/195 [==============================] - 206s 1s/step - loss: 0.1736 - acc: 0.9781 - val_loss: 0.4472 - val_acc: 0.9088
[1,0]<stdout>:Epoch 194/200
[1,0]<stdout>:
[1,0]<stdout>:Epoch 00194: LearningRateScheduler setting learning rate to 0.0001.
[1,1]<stdout>:
[1,1]<stdout>:Epoch 00194: LearningRateScheduler setting learning rate to 0.0001.
[1,0]<stdout>:195/195 [==============================] - 206s 1s/step - loss: 0.1712 - acc: 0.9792 - val_loss: 0.4464 - val_acc: 0.9076
[1,0]<stdout>:Epoch 195/200
[1,0]<stdout>:
[1,0]<stdout>:Epoch 00195: LearningRateScheduler setting learning rate to 0.0001.
[1,1]<stdout>:
[1,1]<stdout>:Epoch 00195: LearningRateScheduler setting learning rate to 0.0001.
[1,0]<stdout>:195/195 [==============================] - 207s 1s/step - loss: 0.1785 - acc: 0.9768 - val_loss: 0.4471 - val_acc: 0.9082
[1,0]<stdout>:Epoch 196/200
[1,0]<stdout>:
[1,0]<stdout>:Epoch 00196: LearningRateScheduler setting learning rate to 0.0001.
[1,1]<stdout>:
[1,1]<stdout>:Epoch 00196: LearningRateScheduler setting learning rate to 0.0001.
[1,0]<stdout>:195/195 [==============================] - 210s 1s/step - loss: 0.1776 - acc: 0.9762 - val_loss: 0.4474 - val_acc: 0.9084
[1,0]<stdout>:Epoch 197/200
[1,1]<stdout>:
[1,1]<stdout>:Epoch 00197: LearningRateScheduler setting learning rate to 0.0001.
[1,0]<stdout>:
[1,0]<stdout>:Epoch 00197: LearningRateScheduler setting learning rate to 0.0001.
[1,0]<stdout>:195/195 [==============================] - 209s 1s/step - loss: 0.1720 - acc: 0.9798 - val_loss: 0.4476 - val_acc: 0.9081
[1,0]<stdout>:
[1,0]<stdout>:Epoch 00197: ReduceLROnPlateau reducing learning rate to 9.999999747378752e-06.
[1,0]<stdout>:Epoch 198/200
[1,0]<stdout>:
[1,0]<stdout>:Epoch 00198: LearningRateScheduler setting learning rate to 0.0001.
[1,1]<stdout>:
[1,1]<stdout>:Epoch 00197: ReduceLROnPlateau reducing learning rate to 9.999999747378752e-06.
[1,1]<stdout>:
[1,1]<stdout>:Epoch 00198: LearningRateScheduler setting learning rate to 0.0001.
[1,0]<stdout>:195/195 [==============================] - 210s 1s/step - loss: 0.1722 - acc: 0.9796 - val_loss: 0.4475 - val_acc: 0.9081
[1,0]<stdout>:Epoch 199/200
[1,0]<stdout>:
[1,0]<stdout>:Epoch 00199: LearningRateScheduler setting learning rate to 0.0001.
[1,1]<stdout>:
[1,1]<stdout>:Epoch 00199: LearningRateScheduler setting learning rate to 0.0001.
[1,0]<stdout>:195/195 [==============================] - 210s 1s/step - loss: 0.1753 - acc: 0.9787 - val_loss: 0.4485 - val_acc: 0.9085
[1,1]<stdout>:
[1,1]<stdout>:Epoch 00200: LearningRateScheduler setting learning rate to 0.0001.
[1,0]<stdout>:Epoch 200/200
[1,0]<stdout>:
[1,0]<stdout>:Epoch 00200: LearningRateScheduler setting learning rate to 0.0001.
[1,0]<stdout>:195/195 [==============================] - 210s 1s/step - loss: 0.1710 - acc: 0.9800 - val_loss: 0.4470 - val_acc: 0.9079
[1,1]<stdout>:Test loss: 0.4472469
[1,1]<stdout>:Test accuracy: 0.9082
[1,0]<stdout>:Test loss: 0.4472469
[1,0]<stdout>:Test accuracy: 0.9082
[1,0]<stderr>:Using TensorFlow backend.
[1,0]<stdout>:42062.6056830883
[1,1]<stderr>:Using TensorFlow backend.
[1,1]<stdout>:42062.72852349281

